Division,WeightClassKg,Place,Name,Team,BodyweightKg,Best3SquatKg,Best3BenchKg,Best3DeadliftKg,TotalKg,Equipment,Event,Sex
Boys,51.71,1,Isaiah Lombrana,Brady,51.44,165.56,86.18,156.49,408.23,Single-ply,SBD,M
Boys,51.71,2,Jeff Smith,Valley Mills,51.44,154.22,86.18,158.76,399.16,Single-ply,SBD,M
Boys,51.71,3,Trey Fuller,Jarrell,49.53,145.15,74.84,142.88,362.87,Single-ply,SBD,M
Boys,51.71,4,Chris Fehlman,McGregor,51.17,124.74,77.11,149.69,351.53,Single-ply,SBD,M
Boys,55.79,5,DeVante Graves,Chilton,51.94,120.2,63.5,145.15,328.85,Single-ply,SBD,M
Boys,51.71,6,Randy Salinas,Bangs,51.62,120.2,74.84,131.54,326.59,Single-ply,SBD,M
Boys,51.71,7,Baldomero Sanchez,Riesel,51.66,127.01,54.43,133.81,315.25,Single-ply,SBD,M
Boys,51.71,8,Dilan Juarez,Florence,51.26,115.67,54.43,142.88,312.98,Single-ply,SBD,M
Boys,51.71,9,Jamie Smith,Comanche,49.17,124.74,63.5,122.47,310.71,Single-ply,SBD,M
Boys,51.71,10,Jeremy Alaniz,Riesel,51.53,102.06,58.97,117.93,278.96,Single-ply,SBD,M
Boys,55.79,1,Caleb Coates,Lago Vista,55.61,188.24,108.86,170.1,467.2,Single-ply,SBD,M
Boys,55.79,2,D'Montre Brown,Cameron Yoe,53.34,151.95,90.72,183.7,426.38,Single-ply,SBD,M
Boys,55.79,3,Gabe Senegal,Little River Academy,53.89,145.15,95.25,163.29,403.7,Single-ply,SBD,M
Boys,55.79,4,Colton Russell,Bosqueville,55.61,158.76,81.65,154.22,394.63,Single-ply,SBD,M
Boys,55.79,5,Ricardo Pina,Comanche,55.43,142.88,83.91,158.76,385.55,Single-ply,SBD,M
Boys,55.79,6,Dane Rodriguez,Chilton,55.25,154.22,72.57,145.15,371.95,Single-ply,SBD,M
Boys,55.79,7,Alvin Cole,Brady,55.07,136.08,70.31,147.42,353.8,Single-ply,SBD,M
Boys,55.79,8,Corey Crowell,Bangs,55.07,127.01,83.91,131.54,342.46,Single-ply,SBD,M
Boys,55.79,9,Walker Shelton,Tolar,55.34,120.2,70.31,142.88,333.39,Single-ply,SBD,M
Boys,55.79,DQ,Bryce Jordan,Rio Vista,51.98,,,,,Single-ply,SBD,M
Boys,67.13,1,Ryan Linkous,Axtell,60.06,208.65,106.59,206.38,521.63,Single-ply,SBD,M
Boys,59.87,2,Michael Kohl,Rosebud-Lott,59.33,172.37,108.86,181.44,462.66,Single-ply,SBD,M
Boys,59.87,3,Rey Castro,Waco Reicher Catholic,58.88,179.17,97.52,179.17,455.86,Single-ply,SBD,M
Boys,59.87,4,Justin Burnett,Hamilton,59.42,158.76,86.18,181.44,426.38,Single-ply,SBD,M
Boys,67.13,5,Dakkota Murray,Brady,59.96,163.29,68.04,172.37,403.7,Single-ply,SBD,M
Boys,59.87,6,Jose Morantes,Dublin,58.79,145.15,86.18,170.1,401.43,Single-ply,SBD,M
Boys,59.87,7,Blake Dulaney,Bangs,59.51,165.56,86.18,149.69,401.43,Single-ply,SBD,M
Boys,59.87,8,Joe Michael Sanchez,Lingleville,59.06,149.69,81.65,167.83,399.16,Single-ply,SBD,M
Boys,59.87,9,Steven Foster,Riesel,59.42,142.88,83.91,158.76,385.55,Single-ply,SBD,M
Boys,59.87,10,Mario Quintero,Clifton,59.42,154.22,74.84,147.42,376.48,Single-ply,SBD,M
Boys,59.87,11,Richard Moran,Jarrell,59.6,145.15,79.38,149.69,374.21,Single-ply,SBD,M
Boys,67.13,1,Osiel Avilez,Jarrell,65.95,247.21,145.15,226.8,619.15,Single-ply,SBD,M
Boys,67.13,2,Levi Bamber,Dublin,65.14,224.53,129.27,233.6,587.4,Single-ply,SBD,M
Boys,67.13,3,Leo Alfaro,Hempstead,66.41,199.58,113.4,233.6,546.58,Single-ply,SBD,M
Boys,74.84,4,Chris Sosebee,Whitney,67.36,204.12,117.93,197.31,519.36,Single-ply,SBD,M
Boys,67.13,5,Mark New,Clifton,65.86,190.51,115.67,204.12,510.29,Single-ply,SBD,M
Boys,67.13,6,Michael Fitzhugh,Waco Reicher Catholic,66.77,188.24,111.13,195.04,494.42,Single-ply,SBD,M
Boys,67.13,7,Zach Beyer,Bosqueville,66.95,185.97,95.25,199.58,480.81,Single-ply,SBD,M
Boys,67.13,8,Derek Bonner,Whitney,64.41,181.44,104.33,181.44,467.2,Single-ply,SBD,M
Boys,67.13,9,Victor Moya,Jarrell,66.59,172.37,117.93,172.37,462.66,Single-ply,SBD,M
Boys,67.13,10,Stephen Smith,Iola,65.95,181.44,102.06,170.1,453.59,Single-ply,SBD,M
Boys,67.13,DQ,Omar Saavedra,Jarrell,66.77,156.49,108.86,176.9,,Single-ply,SBD,M
Boys,74.84,1,Jesus Jaimes,Riesel,67.49,235.87,140.61,213.19,589.67,Single-ply,SBD,M
Boys,74.84,2,Hunter Fritscher,Crawford,73.03,249.48,129.27,210.92,589.67,Single-ply,SBD,M
Boys,74.84,3,Alex Cervantes,San Saba,69.31,215.46,115.67,238.14,569.26,Single-ply,SBD,M
Boys,74.84,4,Jeremy Seay,Meridian,73.21,219.99,124.74,215.46,560.19,Single-ply,SBD,M
Boys,74.84,5,Matthew Maley,Crawford,68.95,226.8,117.93,213.19,557.92,Single-ply,SBD,M
Boys,74.84,6,Darius Battles,Hempstead,72.39,204.12,138.35,215.46,557.92,Single-ply,SBD,M
Boys,74.84,7,Allan Hale,San Saba,69.76,201.85,131.54,210.92,544.31,Single-ply,SBD,M
Boys,74.84,8,Jake Beebe,Valley Mills,74.21,226.8,115.67,201.85,544.31,Single-ply,SBD,M
Boys,74.84,9,Garrison Dean,Crawford,71.49,204.12,108.86,208.65,521.63,Single-ply,SBD,M
Boys,74.84,10,David Cortes,Jarrell,73.66,181.44,115.67,192.78,489.88,Single-ply,SBD,M
Boys,74.84,11,Chase Mondrik,Little River Academy,74.75,163.29,113.4,204.12,480.81,Single-ply,SBD,M
Boys,74.84,DQ,Marcos Cardenas,Jarrell,72.57,188.24,120.2,190.51,,Single-ply,SBD,M
Boys,82.1,1,Jamie Czajkowski,Milano,80.01,222.26,147.42,213.19,582.87,Single-ply,SBD,M
Boys,89.81,2,Isaac Jimenez,San Saba,82.28,204.12,129.27,244.94,578.33,Single-ply,SBD,M
Boys,82.1,3,Jacob McAnally,Brady,80.83,226.8,140.61,208.65,576.06,Single-ply,SBD,M
Boys,82.1,4,Josh Tucker,Godley,76.84,206.38,111.13,238.14,555.65,Single-ply,SBD,M
Boys,82.1,5,Alex Trujillo,Hempstead,79.65,204.12,124.74,226.8,555.65,Single-ply,SBD,M
Boys,82.1,6,Thomas McNeal,Luling,80.47,219.99,115.67,217.72,553.38,Single-ply,SBD,M
Boys,82.1,7,Brody Jones,Crawford,79.83,240.4,124.74,185.97,551.11,Single-ply,SBD,M
Boys,82.1,8,Jacob Hodges,Brady,81.56,213.19,122.47,190.51,526.17,Single-ply,SBD,M
Boys,82.1,DQ,Nate Cantrell,Comfort,76.93,192.78,131.54,,,Single-ply,SBD,M
Boys,99.79,1,Roy Rodriguez,Clifton,89.99,278.96,158.76,235.87,673.58,Single-ply,SBD,M
Boys,89.81,2,Chris Hubnik,Rogers,86.55,265.35,149.69,240.4,655.44,Single-ply,SBD,M
Boys,89.81,3,Christian Bosquez,Bangs,85.73,249.48,120.2,219.99,589.67,Single-ply,SBD,M
Boys,89.81,4,Alex Cruz,Granger,87.09,213.19,140.61,206.38,560.19,Single-ply,SBD,M
Boys,89.81,5,Jake Moore,Iola,87.45,199.58,131.54,213.19,544.31,Single-ply,SBD,M
Boys,89.81,6,Michael Davis,Florence,83.01,229.06,106.59,199.58,535.24,Single-ply,SBD,M
Boys,89.81,7,Aaron Werlein,Luling,83.82,222.26,104.33,199.58,526.17,Single-ply,SBD,M
Boys,89.81,8,Tanner Weyerts,San Saba,88.36,204.12,95.25,226.8,526.17,Single-ply,SBD,M
Boys,89.81,9,Josh Freeman,Hubbard,84.91,183.7,99.79,190.51,474,Single-ply,SBD,M
Boys,99.79,DQ,Max Palacio,San Saba,89.99,206.38,120.2,,,Single-ply,SBD,M
Boys,99.79,1,Jacob McNamara,Moody,97.43,281.23,163.29,217.72,662.24,Single-ply,SBD,M
Boys,99.79,2,John Maddigan,Rosebud-Lott,94.8,238.14,154.22,249.48,641.83,Single-ply,SBD,M
Boys,99.79,3,Gabe Guillen,Luling,98.52,244.94,154.22,217.72,616.89,Single-ply,SBD,M
Boys,99.79,4,Ryan Clewis,Godley,95.71,235.87,145.15,229.06,610.08,Single-ply,SBD,M
Boys,99.79,5,Dominic Rosales,San Saba,98.7,229.06,136.08,233.6,598.74,Single-ply,SBD,M
Boys,99.79,6,Joel Elizondo,Comanche,92.53,240.4,145.15,210.92,596.47,Single-ply,SBD,M
Boys,99.79,7,Kevin Abercrombie,Little River Academy,97.16,240.4,124.74,222.26,587.4,Single-ply,SBD,M
Boys,99.79,8,Bryan Ruiz,Luling,98.25,231.33,133.81,215.46,580.6,Single-ply,SBD,M
Boys,99.79,9,Jared Wilson,Rio Vista,93.98,226.8,136.08,215.46,578.33,Single-ply,SBD,M
Boys,99.79,10,Zecharia Roberson,Cameron Yoe,90.99,219.99,124.74,231.33,576.06,Single-ply,SBD,M
Boys,99.79,DQ,Rene Aleman,Dublin,95.53,192.78,142.88,215.46,,Single-ply,SBD,M
Boys,99.79,DQ,Ej Waggy,Rogers,92.08,204.12,136.08,181.44,,Single-ply,SBD,M
Boys,99.79,DQ,Tyler Gibson,Luling,99.52,219.99,120.2,,,Single-ply,SBD,M
Boys,109.77,1,Garlin Gonzalez,Waco Reicher Catholic,108.14,310.71,185.97,276.69,773.37,Single-ply,SBD,M
Boys,109.77,2,Luis Ramírez,Waco Reicher Catholic,107.23,260.82,170.1,242.67,673.58,Single-ply,SBD,M
Boys,109.77,3,Casey Stripling,Riesel,101.97,249.48,149.69,222.26,621.42,Single-ply,SBD,M
Boys,109.77,4,Shurdon Simpson,Chilton,109.77,272.16,145.15,204.12,621.42,Single-ply,SBD,M
Boys,109.77,5,Brett Mosher,Tolar,108.68,260.82,147.42,208.65,616.89,Single-ply,SBD,M
Boys,109.77,6,Sam Lopez,Bangs,109.32,254.01,145.15,201.85,601.01,Single-ply,SBD,M
Boys,109.77,7,Omar Cardosa,Waco Reicher Catholic,106.96,229.06,133.81,215.46,578.33,Single-ply,SBD,M
Boys,109.77,8,Austin Brewer,Clifton,102.51,201.85,138.35,235.87,576.06,Single-ply,SBD,M
Boys,109.77,9,Matt Guerrero,Luling,106.05,244.94,136.08,192.78,573.79,Single-ply,SBD,M
Boys,109.77,10,Orlando Ordonez,Luling,104.24,244.94,136.08,188.24,569.26,Single-ply,SBD,M
Boys,109.77,DQ,Hayden Houpt,Whitney,102.6,226.8,149.69,240.4,,Single-ply,SBD,M
Boys,109.77,DQ,Trevon Williams,Rosebud-Lott,109.04,213.19,120.2,217.72,,Single-ply,SBD,M
Boys,109.77,DQ,Omar Ordonez,Luling,102.42,,,,,Single-ply,SBD,M
Boys,124.74,1,Will Dreyer,Clifton,118.84,317.51,201.85,272.16,791.52,Single-ply,SBD,M
Boys,124.74,2,Isaiah Ross,Troy,120.75,290.3,149.69,283.5,723.48,Single-ply,SBD,M
Boys,124.74,3,Jayton May,Brady,122.83,299.37,170.1,254.01,723.48,Single-ply,SBD,M
Boys,124.74,4,Scotty Shartle,Meridian,121.47,272.16,165.56,238.14,675.85,Single-ply,SBD,M
Boys,124.74,5,Ryan Zdroik,Rogers,113.94,249.48,154.22,231.33,635.03,Single-ply,SBD,M
Boys,124.74,6,Brandon Lane,Tolar,121.02,247.21,145.15,226.8,619.15,Single-ply,SBD,M
Boys,124.74,7,Blake Washington,Godley,114.12,224.53,145.15,219.99,589.67,Single-ply,SBD,M
Boys,124.74,8,Trent Andrews,Bosqueville,115.03,240.4,97.52,226.8,564.72,Single-ply,SBD,M
Boys,124.74,9,Will Sloan,San Saba,110.13,210.92,136.08,208.65,555.65,Single-ply,SBD,M
Boys,124.74,DQ,Jesse Wilson,Whitney,122.38,226.8,133.81,190.51,,Single-ply,SBD,M
Boys,124.74,DQ,Carlton Hollister,Riesel,110.86,226.8,,,,Single-ply,SBD,M
Boys,124.74+,1,Jesus Pinon,Meridian,134.44,297.1,195.04,254.01,746.16,Single-ply,SBD,M
Boys,124.74+,2,Adam Rodriguez,Chilton,125.74,308.44,176.9,240.4,725.75,Single-ply,SBD,M
Boys,124.74+,3,Shawn McKinney,Hubbard,168.92,272.16,174.63,249.48,696.26,Single-ply,SBD,M
Boys,124.74+,4,Luis Robles,Florence,132.27,310.71,147.42,215.46,673.58,Single-ply,SBD,M
Boys,124.74+,5,Augie Hinojosa,Whitney,129,272.16,149.69,244.94,666.78,Single-ply,SBD,M
Boys,124.74+,6,Max Meador,Brady,153.77,294.84,140.61,231.33,666.78,Single-ply,SBD,M
Boys,124.74+,7,Brian Cain,Thrall,140.98,281.23,165.56,215.46,662.24,Single-ply,SBD,M
Boys,124.74+,8,Colt Caffey,Sidney,126.37,240.4,170.1,247.21,657.71,Single-ply,SBD,M
Boys,124.74+,9,Diego Montoya,San Saba,142.61,260.82,149.69,244.94,655.44,Single-ply,SBD,M
Boys,124.74+,10,Kyle Speicher,Godley,128.46,233.6,120.2,231.33,585.13,Single-ply,SBD,M
Boys,124.74+,DQ,Tanner Finley,Whitney,139.34,181.44,167.83,183.7,,Single-ply,SBD,M
