Division,WeightClassKg,Place,Name,Team,BodyweightKg,Best3SquatKg,Best3BenchKg,Best3DeadliftKg,TotalKg,Equipment,Event,Sex
Junior Varsity,51.71,1,Phil Alvarado,Blanco,46.63,99.79,43.09,102.06,244.94,Single-ply,SBD,M
Junior Varsity,51.71,2,Amit Patel,Three Rivers,49.85,74.84,52.16,104.33,231.33,Single-ply,SBD,M
Junior Varsity,51.71,3,Chris Lopez,Three Rivers,49.49,83.91,47.63,92.99,224.53,Single-ply,SBD,M
Junior Varsity,51.71,4,Creighton McFalin,Dripping Springs,50.12,77.11,,,77.11,Single-ply,S,M
Junior Varsity,55.79,1,Dustin Thomas,Three Rivers,53.98,102.06,52.16,124.74,278.96,Single-ply,SBD,M
Junior Varsity,55.79,2,Hector Gonzalez,Comfort,53.75,95.25,61.23,113.4,269.89,Single-ply,SBD,M
Junior Varsity,59.87,1,Joey Vasquez,San Antonio Southside,59.38,79.38,40.82,74.84,195.04,Single-ply,SBD,M
Junior Varsity,67.13,1,Austin Gonzales,San Antonio Southside,66.86,111.13,102.06,142.88,356.07,Single-ply,SBD,M
Junior Varsity,67.13,2,Mason Lindner,Comfort,64.64,124.74,92.99,136.08,353.8,Single-ply,SBD,M
Junior Varsity,67.13,3,Randall Sanez,Three Rivers,64.86,142.88,68.04,138.35,349.27,Single-ply,SBD,M
Junior Varsity,67.13,4,Miguel Cano,Pleasanton,66.9,124.74,70.31,136.08,331.12,Single-ply,SBD,M
Junior Varsity,67.13,5,Dustin Trevino,San Antonio Southside,64.55,90.72,77.11,136.08,303.91,Single-ply,SBD,M
Junior Varsity,74.84,6,Wyatt Mcdonald,San Antonio Southside,67.36,102.06,63.5,111.13,276.69,Single-ply,SBD,M
Junior Varsity,67.13,7,Matt Rollins,Lytle,64.27,122.47,127.01,,249.48,Single-ply,SB,M
Junior Varsity,67.13,8,Chris Taylor,Comfort,66.9,86.18,49.9,97.52,233.6,Single-ply,SBD,M
Junior Varsity,67.13,9,Mike Sorola,Pleasanton,65.32,142.88,81.65,,224.53,Single-ply,SB,M
Junior Varsity,67.13,DQ,Chris Marachi,Universal City Randolph,64.46,,,,,Single-ply,SB,M
Junior Varsity,74.84,1,Taylor Shearrer,Pleasanton,73.71,167.83,88.45,147.42,403.7,Single-ply,SBD,M
Junior Varsity,74.84,2,Kyle Adair,Dripping Springs,71.17,136.08,83.91,165.56,385.55,Single-ply,SBD,M
Junior Varsity,74.84,3,Domonique Cantu,Three Rivers,74.84,151.95,79.38,151.95,383.29,Single-ply,SBD,M
Junior Varsity,82.1,4,Rihl Dougherty,Dripping Springs,75.07,133.81,83.91,165.56,383.29,Single-ply,SBD,M
Junior Varsity,74.84,5,Abel DeLoera,Lytle,71.08,129.27,77.11,142.88,349.27,Single-ply,SBD,M
Junior Varsity,74.84,6,Patrick Jarratt,Three Rivers,74.53,131.54,58.97,151.95,342.46,Single-ply,SBD,M
Junior Varsity,74.84,7,Daniel Lozano,Comfort,71.89,102.06,72.57,136.08,310.71,Single-ply,SBD,M
Junior Varsity,74.84,8,Corey Spencer,Comfort,72.35,106.59,68.04,124.74,299.37,Single-ply,SBD,M
Junior Varsity,74.84,9,Dylan Aguinaga,Lytle,69.04,97.52,72.57,120.2,290.3,Single-ply,SBD,M
Junior Varsity,74.84,10,Jj Aguinaga,Lytle,67.9,97.52,56.7,124.74,278.96,Single-ply,SBD,M
Junior Varsity,74.84,11,Trevor Goodman,Dripping Springs,73.03,83.91,63.5,122.47,269.89,Single-ply,SBD,M
Junior Varsity,74.84,12,Nic Graner,Dripping Springs,73.16,102.06,,102.06,204.12,Single-ply,SD,M
Junior Varsity,74.84,DQ,Gavin Garrow,Blanco,74.84,,,,,Single-ply,SD,M
Junior Varsity,74.84,DQ,Troy Chowns,Three Rivers,74.84,,,,,Single-ply,SD,M
Junior Varsity,74.84,DQ,Juan Perez,San Antonio Southside,74.84,,,,,Single-ply,SD,M
Junior Varsity,82.1,1,Richard Pena,San Antonio Southside,82.01,226.8,147.42,185.97,560.19,Single-ply,SBD,M
Junior Varsity,82.1,2,Mason LaBlanc,Blanco,76.61,170.1,95.25,158.76,424.11,Single-ply,SBD,M
Junior Varsity,82.1,3,Noah Emery,Dripping Springs,80.42,133.81,83.91,170.1,387.82,Single-ply,SBD,M
Junior Varsity,82.1,4,Ecce Bradfute,Blanco,78.11,145.15,115.67,124.74,385.55,Single-ply,SBD,M
Junior Varsity,82.1,5,Chris Fries,Dripping Springs,81.33,131.54,72.57,174.63,378.75,Single-ply,SBD,M
Junior Varsity,82.1,6,Thomas Trevino,Pleasanton,81.65,142.88,79.38,149.69,371.95,Single-ply,SBD,M
Junior Varsity,82.1,7,David Bernal,Pleasanton,81.42,127.01,79.38,145.15,351.53,Single-ply,SBD,M
Junior Varsity,82.1,8,Hagan Johnston,Three Rivers,77.88,124.74,56.7,127.01,308.44,Single-ply,SBD,M
Junior Varsity,82.1,9,Aaron Meinecke,Three Rivers,78.2,102.06,65.77,124.74,292.57,Single-ply,SBD,M
Junior Varsity,82.1,10,Miguel Pérez,Lytle,81.51,163.29,,,163.29,Single-ply,S,M
Junior Varsity,82.1,11,Derek Flores,Blanco,77.38,142.88,,,142.88,Single-ply,S,M
Junior Varsity,82.1,DQ,Jordan Ribera,Dripping Springs,82.1,,,,,Single-ply,S,M
Junior Varsity,82.1,DQ,Bailey Walker,Comfort,82.1,,,,,Single-ply,S,M
Junior Varsity,89.81,1,Esteban Ferdin,Lytle,87.14,185.97,104.33,170.1,460.4,Single-ply,SBD,M
Junior Varsity,89.81,2,Cody Perez,Blanco,89.81,154.22,95.25,195.04,444.52,Single-ply,SBD,M
Junior Varsity,89.81,3,Carlos Carrillo,Lytle,86.86,158.76,102.06,172.37,433.18,Single-ply,SBD,M
Junior Varsity,89.81,4,Adolph Lopez,San Antonio Southside,87.5,161.03,102.06,163.29,426.38,Single-ply,SBD,M
Junior Varsity,89.81,5,Brittain Wagner,Blanco,85.87,149.69,97.52,176.9,424.11,Single-ply,SBD,M
Junior Varsity,89.81,6,Westin Carrol,Three Rivers,88.41,142.88,102.06,147.42,392.36,Single-ply,SBD,M
Junior Varsity,89.81,7,Jacob Rivera,San Antonio Southside,88.27,147.42,77.11,165.56,390.09,Single-ply,SBD,M
Junior Varsity,89.81,8,Avery McThompson,Dripping Springs,86.95,133.81,90.72,145.15,369.68,Single-ply,SBD,M
Junior Varsity,89.81,9,Dominic Potter,Lytle,87.18,47.63,43.09,102.06,192.78,Single-ply,SBD,M
Junior Varsity,89.81,DQ,Sam Jones,Universal City Randolph,89.72,,,,,Single-ply,SBD,M
Junior Varsity,109.77,1,Mike Garza,Blanco,99.97,163.29,108.86,195.04,467.2,Single-ply,SBD,M
Junior Varsity,99.79,2,Daniel Diaz,Three Rivers,95.71,174.63,115.67,158.76,449.06,Single-ply,SBD,M
Junior Varsity,109.77,3,Tj Rodriguez,Three Rivers,100.02,165.56,104.33,161.03,430.91,Single-ply,SBD,M
Junior Varsity,99.79,4,Frank Hernandez,Pleasanton,99.56,161.03,102.06,158.76,421.84,Single-ply,SBD,M
Junior Varsity,99.79,5,Kalli Escamilla,Three Rivers,92.35,149.69,81.65,172.37,403.7,Single-ply,SBD,M
Junior Varsity,109.77,6,Michael Lansford,Dripping Springs,99.88,113.4,72.57,127.01,312.98,Single-ply,SBD,M
Junior Varsity,99.79,7,Gilbert Garza,San Antonio Southside,97.98,113.4,70.31,122.47,306.17,Single-ply,SBD,M
Junior Varsity,99.79,DQ,Tyler Farris,Universal City Randolph,95.3,,,,,Single-ply,SBD,M
Junior Varsity,109.77,1,Joe Cantu,Lytle,104.19,190.51,95.25,185.97,471.74,Single-ply,SBD,M
Junior Varsity,109.77,2,Matthew Ruiz,Three Rivers,103.78,142.88,142.88,158.76,444.52,Single-ply,SBD,M
Junior Varsity,109.77,3,Felipe Olivarri,Pleasanton,105.69,156.49,108.86,167.83,433.18,Single-ply,SBD,M
Junior Varsity,109.77,4,Alex Trevino,San Antonio Southside,107.14,156.49,86.18,181.44,424.11,Single-ply,SBD,M
Junior Varsity,109.77,5,Noah Tresselt,Blanco,109.54,140.61,97.52,163.29,401.43,Single-ply,SBD,M
Junior Varsity,109.77,6,Josh Cardona,Pleasanton,108.18,151.95,92.99,149.69,394.63,Single-ply,SBD,M
Junior Varsity,109.77,7,Chris Santos,Lytle,109,140.61,95.25,149.69,385.55,Single-ply,SBD,M
Junior Varsity,124.74,8,Zach Zulaica,Pleasanton,110,142.88,77.11,158.76,378.75,Single-ply,SBD,M
Junior Varsity,124.74,1,Devin Ortiz,San Antonio Southside,121.38,151.95,102.06,167.83,421.84,Single-ply,SBD,M
Junior Varsity,124.74,2,Jesus Angel,Pleasanton,116.12,156.49,81.65,181.44,419.57,Single-ply,SBD,M
Junior Varsity,124.74,3,Joseph Shamblen,Lytle,120.79,113.4,70.31,,183.7,Single-ply,SB,M
Junior Varsity,124.74,4,Jesse Flores,Pleasanton,124.28,124.74,,,124.74,Single-ply,S,M
Junior Varsity,124.74,DQ,Jake Ramey,Dripping Springs,111.58,,,,,Single-ply,S,M
Junior Varsity,124.74+,1,Steve Lieck,Blanco,125.6,181.44,90.72,181.44,453.59,Single-ply,SBD,M
Junior Varsity,124.74+,2,Zach Ramirez,San Antonio Southside,127.28,129.27,90.72,129.27,349.27,Single-ply,SBD,M
Junior Varsity,124.74+,3,Noah Ramirez,Comfort,127.91,136.08,83.91,124.74,344.73,Single-ply,SBD,M
Boys,55.79,1,Josh Ramirez,Kyle Lehman,51.89,104.33,63.5,136.08,303.91,Single-ply,SBD,M
Boys,51.71,2,Jeremiah Jimenez,Lytle,49.03,102.06,61.23,131.54,294.84,Single-ply,SBD,M
Boys,51.71,3,Max Obregon,Dilley,49.58,102.06,61.23,117.93,281.23,Single-ply,SBD,M
Boys,55.79,4,Martin Deleon,San Antonio Southside,51.8,97.52,38.56,127.01,263.08,Single-ply,SBD,M
Boys,55.79,1,John Guillen,Lytle,55.43,140.61,90.72,151.95,383.29,Single-ply,SBD,M
Boys,59.87,2,Prendi Garcia,Dilley,56.02,124.74,72.57,124.74,322.05,Single-ply,SBD,M
Boys,55.79,3,Joel Rodriguez,Castroville Medina Valley,53.34,106.59,77.11,127.01,310.71,Single-ply,SBD,M
Boys,55.79,4,John Dominguez,Somerset,54.25,102.06,52.16,120.2,274.42,Single-ply,SBD,M
Boys,55.79,5,Josh Barrera,Lytle,54.7,90.72,54.43,102.06,247.21,Single-ply,SBD,M
Boys,59.87,1,Michael Casarez,Three Rivers,56.74,176.9,79.38,179.17,435.45,Single-ply,SBD,M
Boys,59.87,2,Marc Campos,San Antonio East Central,59.6,158.76,83.91,156.49,399.16,Single-ply,SBD,M
Boys,67.13,3,Benito Flores,San Antonio Southside,60.06,120.2,90.72,149.69,360.61,Single-ply,SBD,M
Boys,59.87,4,Juan Guerrero,Lytle,58.24,131.54,77.11,145.15,353.8,Single-ply,SBD,M
Boys,59.87,5,Alan Espinoza,Dilley,56.74,102.06,63.5,120.2,285.76,Single-ply,SBD,M
Boys,59.87,6,Mark Salinas,Castroville Medina Valley,56.65,106.59,56.7,115.67,278.96,Single-ply,SBD,M
Boys,67.13,1,Joseph Martinez,Round Rock,66.9,226.8,136.08,210.92,573.79,Single-ply,SBD,M
Boys,67.13,2,Robert Carrasco,Pleasanton,64.86,192.78,92.99,208.65,494.42,Single-ply,SBD,M
Boys,67.13,3,Caleb Gale,Somerset,60.51,174.63,99.79,197.31,471.74,Single-ply,SBD,M
Boys,67.13,4,Kendal William,San Antonio Southside,66.27,158.76,108.86,181.44,449.06,Single-ply,SBD,M
Boys,67.13,5,Brandon Alford,Kyle Lehman,61.14,156.49,99.79,181.44,437.72,Single-ply,SBD,M
Boys,67.13,6,Dustin McDonald,San Antonio Southside,65.23,163.29,88.45,172.37,424.11,Single-ply,SBD,M
Boys,67.13,7,Matt Ritch,San Antonio East Central,65.63,158.76,92.99,161.03,412.77,Single-ply,SBD,M
Boys,67.13,8,Andy Rivera,Universal City Randolph,65.36,127.01,88.45,149.69,365.14,Single-ply,SBD,M
Boys,67.13,9,Chris Marachi,Universal City Randolph,64.46,124.74,95.25,142.88,362.87,Single-ply,SBD,M
Boys,67.13,10,Rey Martinez,Pearsall,64.36,129.27,86.18,145.15,360.61,Single-ply,SBD,M
Boys,67.13,11,Ozzy Gonzalez,Somerset,64.5,122.47,68.04,165.56,356.07,Single-ply,SBD,M
Boys,67.13,12,Trever Horrath,Castroville Medina Valley,62.14,133.81,83.91,133.81,351.53,Single-ply,SBD,M
Boys,67.13,13,Taylor Carrillo,Lytle,65.23,115.67,77.11,149.69,342.46,Single-ply,SBD,M
Boys,67.13,14,Earvin Monje,Center Point,63.73,120.2,70.31,145.15,335.66,Single-ply,SBD,M
Boys,67.13,15,Ezekiel Cortez,Castroville Medina Valley,61.14,113.4,65.77,149.69,328.85,Single-ply,SBD,M
Boys,67.13,16,Brandon Hamilton,Kyle Lehman,66,108.86,79.38,122.47,310.71,Single-ply,SBD,M
Boys,67.13,17,Kevin Avila,Lytle,61.51,111.13,61.23,127.01,299.37,Single-ply,SBD,M
Boys,67.13,18,Lj Rizo,Kyle Lehman,63.09,117.93,63.5,117.93,299.37,Single-ply,SBD,M
Boys,67.13,19,Nieves Garcia,Kyle Lehman,61.51,102.06,68.04,117.93,288.03,Single-ply,SBD,M
Boys,67.13,20,Collin Lybarger,Karnes City,61.28,81.65,47.63,124.74,254.01,Single-ply,SBD,M
Boys,67.13,DQ,Alex Ramirez,Center Point,63.19,129.27,,,,Single-ply,SBD,M
Boys,74.84,1,Jon Frasier,Kyle Lehman,72.98,204.12,142.88,222.26,569.26,Single-ply,SBD,M
Boys,74.84,2,Alex Medrano,Dilley,73.8,204.12,138.35,224.53,566.99,Single-ply,SBD,M
Boys,74.84,3,Pedro Molina,Somerset,74.57,190.51,102.06,226.8,519.36,Single-ply,SBD,M
Boys,82.1,4,Jacob Ritch,San Antonio East Central,75.02,181.44,138.35,195.04,514.83,Single-ply,SBD,M
Boys,74.84,5,Ozzy Varela,Somerset,68.17,195.04,108.86,195.04,498.95,Single-ply,SBD,M
Boys,74.84,6,Mark Trevino,Kyle Lehman,74.71,156.49,115.67,183.7,455.86,Single-ply,SBD,M
Boys,74.84,7,Jason Jungman,Castroville Medina Valley,74.63,172.37,104.33,170.1,446.79,Single-ply,SBD,M
Boys,74.84,8,Will Perrin,Universal City Randolph,73.71,170.1,81.65,181.44,433.18,Single-ply,SBD,M
Boys,74.84,9,Javy Sosa,Pleasanton,71.85,149.69,108.86,167.83,426.38,Single-ply,SBD,M
Boys,74.84,10,Zack Bosquez,Comfort,72.44,142.88,97.52,181.44,421.84,Single-ply,SBD,M
Boys,74.84,11,John Ventura,Pearsall,71.67,124.74,97.52,167.83,390.09,Single-ply,SBD,M
Boys,74.84,12,Jake Martinez,Lytle,74.75,136.08,86.18,163.29,385.55,Single-ply,SBD,M
Boys,74.84,13,Mario Munoz,Center Point,73.16,156.49,81.65,136.08,374.21,Single-ply,SBD,M
Boys,74.84,14,Greg Mills,Lytle,72.17,108.86,70.31,138.35,317.51,Single-ply,SBD,M
Boys,74.84,15,Lupe Valadez,Center Point,68.08,113.4,65.77,129.27,308.44,Single-ply,SBD,M
Boys,74.84,16,Christopher Vinton,Pearsall,68.9,117.93,63.5,115.67,297.1,Single-ply,SBD,M
Boys,74.84,17,Eric Luke,Comfort,70.4,113.4,61.23,120.2,294.84,Single-ply,SBD,M
Boys,82.1,1,Brandon Fisher,Round Rock,79.74,294.84,149.69,260.82,705.34,Single-ply,SBD,M
Boys,82.1,2,Alex Elizondo,Pearsall,78.56,190.51,120.2,204.12,514.83,Single-ply,SBD,M
Boys,82.1,3,Dillion Brunet,Center Point,78.34,183.7,115.67,190.51,489.88,Single-ply,SBD,M
Boys,82.1,4,Cole Thompson,Universal City Randolph,81.78,181.44,111.13,188.24,480.81,Single-ply,SBD,M
Boys,82.1,5,Nate Cantrell,Comfort,77.29,167.83,122.47,181.44,471.74,Single-ply,SBD,M
Boys,82.1,6,Jacob Gonzales,San Antonio East Central,78.2,185.97,99.79,174.63,460.4,Single-ply,SBD,M
Boys,82.1,7,Guy Garcia,Dilley,79.38,142.88,124.74,181.44,449.06,Single-ply,SBD,M
Boys,89.81,8,Shaq Henry,Universal City Randolph,82.24,170.1,95.25,172.37,437.72,Single-ply,SBD,M
Boys,82.1,9,Zach Qualls,Pleasanton,76.75,158.76,83.91,174.63,417.3,Single-ply,SBD,M
Boys,82.1,10,Austin Metzger,Universal City Randolph,81.06,138.35,88.45,181.44,408.23,Single-ply,SBD,M
Boys,82.1,11,Nickolas Villarreal,Somerset,79.92,138.35,72.57,158.76,369.68,Single-ply,SBD,M
Boys,82.1,12,Lemuel Ramirez,Center Point,75.89,147.42,88.45,124.74,360.61,Single-ply,SBD,M
Boys,82.1,13,Michael Bustamante,Somerset,77.93,149.69,79.38,129.27,358.34,Single-ply,SBD,M
Boys,82.1,14,Daniel Autrey,Dilley,76.97,136.08,83.91,136.08,356.07,Single-ply,SBD,M
Boys,82.1,DQ,Rueben Hinojosa,Lytle,80.29,174.63,92.99,,,Single-ply,SBD,M
Boys,89.81,1,Santos Dominguez,San Antonio East Central,87.77,199.58,120.2,204.12,523.9,Single-ply,SBD,M
Boys,89.81,2,Justin Quesada,Somerset,83.28,195.04,117.93,195.04,508.02,Single-ply,SBD,M
Boys,89.81,3,Henry Vasquez,San Antonio East Central,88.5,208.65,111.13,183.7,503.49,Single-ply,SBD,M
Boys,89.81,4,Harvest Trammell,Kyle Lehman,87.32,190.51,106.59,199.58,496.68,Single-ply,SBD,M
Boys,99.79,5,Jonathan Ramos,San Antonio Southside,90.04,170.1,142.88,174.63,487.61,Single-ply,SBD,M
Boys,89.81,6,Abel Gonzalez,Dilley,88.72,188.24,108.86,183.7,480.81,Single-ply,SBD,M
Boys,89.81,7,Ethan Martin,Kyle Lehman,84.14,167.83,104.33,204.12,476.27,Single-ply,SBD,M
Boys,89.81,8,Logan Garza,Castroville Medina Valley,86.64,192.78,104.33,165.56,462.66,Single-ply,SBD,M
Boys,89.81,9,Weston Block,Karnes City,88.27,161.03,88.45,158.76,408.23,Single-ply,SBD,M
Boys,89.81,10,Austin Block,Karnes City,88.36,165.56,83.91,158.76,408.23,Single-ply,SBD,M
Boys,89.81,11,Sam Osborne,Universal City Randolph,86.73,147.42,83.91,167.83,399.16,Single-ply,SBD,M
Boys,89.81,12,Matthew Garcia,Somerset,86,136.08,90.72,158.76,385.55,Single-ply,SBD,M
Boys,89.81,13,Kyle Wehe,Castroville Medina Valley,85.32,138.35,83.91,158.76,381.02,Single-ply,SBD,M
Boys,89.81,14,Micah Jones,Universal City Randolph,86.91,136.08,83.91,158.76,378.75,Single-ply,SBD,M
Boys,89.81,15,Sam Jones,Universal City Randolph,89.72,136.08,61.23,163.29,360.61,Single-ply,SBD,M
Boys,89.81,DQ,Chris Mcginty,Kyle Lehman,87.86,77.11,68.04,,,Single-ply,SBD,M
Boys,99.79,DQ,Logan Bradshaw,Round Rock,99.34,,,,,Single-ply,SBD,M
Boys,99.79,2,Brandon Fuentes,Pleasanton,92.53,226.8,145.15,199.58,571.53,Single-ply,SBD,M
Boys,99.79,3,Isaiah Vasquez,Pearsall,96.48,215.46,124.74,226.8,566.99,Single-ply,SBD,M
Boys,99.79,4,Juan DeLeon,San Antonio Southside,98.16,204.12,113.4,204.12,521.63,Single-ply,SBD,M
Boys,99.79,5,Joe Hernandez,San Antonio East Central,91.63,195.04,120.2,192.78,508.02,Single-ply,SBD,M
Boys,99.79,6,Nathan Morin,Three Rivers,93.62,192.78,106.59,195.04,494.42,Single-ply,SBD,M
Boys,99.79,7,Ian Coleman,Universal City Randolph,99.25,199.58,115.67,172.37,487.61,Single-ply,SBD,M
Boys,109.77,8,Josh Smith,Pleasanton,99.97,181.44,111.13,190.51,483.08,Single-ply,SBD,M
Boys,99.79,9,Nick Ringler,Universal City Randolph,96.89,149.69,102.06,167.83,419.57,Single-ply,SBD,M
Boys,99.79,10,Liam Murphy,Universal City Randolph,97.61,167.83,95.25,149.69,412.77,Single-ply,SBD,M
Boys,99.79,11,Tyler Farris,Universal City Randolph,95.3,147.42,90.72,172.37,410.5,Single-ply,SBD,M
Boys,99.79,12,Jack Richison,Comfort,96.57,131.54,102.06,167.83,401.43,Single-ply,SBD,M
Boys,99.79,13,Jason Von Epps,Pleasanton,99.47,154.22,83.91,161.03,399.16,Single-ply,SBD,M
Boys,99.79,14,Devin Abadiano,Kyle Lehman,93.89,133.81,90.72,136.08,360.61,Single-ply,SBD,M
Boys,99.79,15,Juan Landa,Castroville Medina Valley,94.85,136.08,83.91,136.08,356.07,Single-ply,SBD,M
Boys,99.79,DQ,Gage Briones,Center Point,99.34,138.35,,,,Single-ply,SBD,M
Boys,99.79,DQ,Robert Duenes,Karnes City,92.26,149.69,,,,Single-ply,SBD,M
Boys,99.79,DQ,Mark Cerda,Somerset,91.49,,,,,Single-ply,SBD,M
Boys,109.77,1,Taylor Hearn,Pleasanton,103.65,238.14,133.81,240.4,612.35,Single-ply,SBD,M
Boys,109.77,2,Ben Neuman,Hondo,107.32,231.33,154.22,204.12,589.67,Single-ply,SBD,M
Boys,109.77,3,Salvador Marines,Somerset,104.28,235.87,113.4,235.87,585.13,Single-ply,SBD,M
Boys,109.77,4,Cole Callaway,Universal City Randolph,108.27,195.04,147.42,185.97,528.44,Single-ply,SBD,M
Boys,109.77,5,Chris McCumber,San Antonio East Central,102.01,204.12,136.08,181.44,521.63,Single-ply,SBD,M
Boys,109.77,6,Cruz Banda,Kyle Lehman,101.47,183.7,113.4,181.44,478.54,Single-ply,SBD,M
Boys,109.77,7,Brian Leal,Pearsall,105.96,170.1,92.99,204.12,467.2,Single-ply,SBD,M
Boys,109.77,8,Lucas Janysek,Karnes City,104.6,142.88,92.99,149.69,385.55,Single-ply,SBD,M
Boys,109.77,9,Marcus Ruiz,Kyle Lehman,103.74,136.08,83.91,142.88,362.87,Single-ply,SBD,M
Boys,109.77,10,Benjamin Frieda,Somerset,105.51,142.88,83.91,133.81,360.61,Single-ply,SBD,M
Boys,109.77,11,David Nieto,Pearsall,106.59,117.93,58.97,124.74,301.64,Single-ply,SBD,M
Boys,109.77,12,Julius Gonzalez,Dilley,100.65,70.31,61.23,99.79,231.33,Single-ply,SBD,M
Boys,124.74,1,Alfred Godines,Somerset,118.98,226.8,172.37,217.72,616.89,Single-ply,SBD,M
Boys,124.74,2,John Mendoza,Karnes City,114.67,192.78,129.27,222.26,544.31,Single-ply,SBD,M
Boys,124.74,3,Eddie Lopez,San Antonio East Central,112.94,210.92,133.81,183.7,528.44,Single-ply,SBD,M
Boys,124.74,4,Brodie Ruiz,Three Rivers,114.53,226.8,117.93,179.17,523.9,Single-ply,SBD,M
Boys,124.74,5,Zac Brooks,Pleasanton,112.85,197.31,106.59,204.12,508.02,Single-ply,SBD,M
Boys,124.74,6,Joe Aguero,Somerset,120.79,208.65,97.52,195.04,501.22,Single-ply,SBD,M
Boys,124.74,7,Nick O'Bryant,Castroville Medina Valley,121.47,204.12,117.93,170.1,492.15,Single-ply,SBD,M
Boys,124.74,8,Juan Chavez,San Antonio East Central,112.22,204.12,115.67,163.29,483.08,Single-ply,SBD,M
Boys,124.74,9,Jonathan Macat,Lytle,115.03,185.97,102.06,181.44,469.47,Single-ply,SBD,M
Boys,124.74,10,Colton Bragg,Lytle,113.81,147.42,115.67,190.51,453.59,Single-ply,SBD,M
Boys,124.74,11,Gabriel Garza,Somerset,121.34,172.37,106.59,158.76,437.72,Single-ply,SBD,M
Boys,124.74,12,Robert Ramos,San Antonio Southside,121.7,151.95,90.72,195.04,437.72,Single-ply,SBD,M
Boys,124.74,13,Chris Trujillo,Center Point,113.85,158.76,97.52,158.76,415.04,Single-ply,SBD,M
Boys,124.74,14,Zachary Moreno,Somerset,114.31,147.42,111.13,145.15,403.7,Single-ply,SBD,M
Boys,124.74,15,José Castillo,Somerset,118.57,142.88,102.06,145.15,390.09,Single-ply,SBD,M
Boys,124.74,16,Robert Sanchez,Dilley,112.94,97.52,61.23,113.4,272.16,Single-ply,SBD,M
Boys,124.74,DQ,Alex Hernandez,Lytle,119.93,176.9,106.59,,,Single-ply,SBD,M
Boys,124.74,DQ,Kenny Higgins,Kyle Lehman,124.74,,,,,Single-ply,SBD,M
Boys,124.74,DQ,Robert Huitron,San Antonio Southside,113.22,249.48,,,,Single-ply,SBD,M
Boys,124.74+,1,Tyler Seiler,Pearsall,149.01,231.33,170.1,226.8,628.23,Single-ply,SBD,M
Boys,124.74+,2,Mark Alarcon,San Antonio East Central,136.67,215.46,124.74,195.04,535.24,Single-ply,SBD,M
Boys,124.74+,3,Trent Rhodes,Center Point,126.55,192.78,124.74,151.95,469.47,Single-ply,SBD,M
Boys,124.74+,4,Matt Tschirhart,Castroville Medina Valley,132.95,156.49,90.72,124.74,371.95,Single-ply,SBD,M
