Division,WeightClassKg,Place,Name,Team,BodyweightKg,Best3SquatKg,Best3BenchKg,Best3DeadliftKg,TotalKg,Equipment,Event,Sex
Boys,51.71,1,Juan Padron,Navasota,51.71,127.01,63.5,140.61,331.12,Single-ply,SBD,M
Boys,51.71,2,Blaise Ohnheiser,Conroe,49.99,127.01,65.77,131.54,324.32,Single-ply,SBD,M
Boys,51.71,3,Nate Colborn,Montgomery,50.89,124.74,72.57,122.47,319.78,Single-ply,SBD,M
Boys,51.71,4,Jared Ali,Conroe The Woodlands,50.98,108.86,63.5,127.01,299.37,Single-ply,SBD,M
Boys,51.71,5,Boone Beyer,Magnolia,46.99,88.45,47.63,106.59,242.67,Single-ply,SBD,M
Boys,55.79,1,Cody Costello,Magnolia West,54.88,133.81,72.57,133.81,340.19,Single-ply,SBD,M
Boys,55.79,2,Reis Rice,Magnolia,55.75,124.74,74.84,138.35,337.93,Single-ply,SBD,M
Boys,55.79,3,Marcos Mendez,Magnolia West,53.71,102.06,70.31,136.08,308.44,Single-ply,SBD,M
Boys,55.79,4,Ian Alvarez,Conroe The Woodlands,52.89,102.06,65.77,111.13,278.96,Single-ply,SBD,M
Boys,55.79,5,Matt Provost,Conroe The Woodlands,54.79,108.86,47.63,111.13,267.62,Single-ply,SBD,M
Boys,55.79,6,Isaac Bozarth,Magnolia,53.71,99.79,49.9,102.06,251.74,Single-ply,SBD,M
Boys,55.79,DQ,Alec Ohnheiser,Conroe,52.53,115.67,,,,Single-ply,SBD,M
Boys,59.87,1,Tyler Boggs,Magnolia,59.33,151.95,74.84,158.76,385.55,Single-ply,SBD,M
Boys,59.87,2,Bralin Henderson,Conroe Oak Ridge,57.42,124.74,83.91,165.56,374.21,Single-ply,SBD,M
Boys,59.87,3,Zach Mills,Conroe Woodlands College Park,59.33,136.08,72.57,140.61,349.27,Single-ply,SBD,M
Boys,59.87,4,Jack Lockhart,Conroe The Woodlands,56.25,117.93,70.31,117.93,306.17,Single-ply,SBD,M
Boys,59.87,5,Cole Hebert,Magnolia,56.34,92.99,68.04,124.74,285.76,Single-ply,SBD,M
Boys,59.87,DQ,Damien Hickey,Port Neches-Groves,58.69,,,,,Single-ply,SBD,M
Boys,59.87,DQ,Desmond Nguyen,Port Neches-Groves,59.78,154.22,,,,Single-ply,SBD,M
Boys,59.87,DQ,Logan Arrington,Navasota,58.24,108.86,,,,Single-ply,SBD,M
Boys,67.13,1,Edgar Benegas,Conroe,64.05,219.99,108.86,226.8,555.65,Single-ply,SBD,M
Boys,67.13,2,James Traylor,Montgomery,66.5,185.97,111.13,226.8,523.9,Single-ply,SBD,M
Boys,67.13,3,Ivan Fuentes,Willis,66.77,190.51,102.06,199.58,492.15,Single-ply,SBD,M
Boys,67.13,4,Jacob Jackson,Conroe Woodlands College Park,65.95,195.04,113.4,176.9,485.34,Single-ply,SBD,M
Boys,67.13,5,Ian Campbell,Navasota,62.87,172.37,120.2,158.76,451.32,Single-ply,SBD,M
Boys,67.13,6,Edwin Amaya,Huntsville,66.22,167.83,88.45,167.83,424.11,Single-ply,SBD,M
Boys,67.13,7,Donovan Thomas,Navasota,65.86,140.61,86.18,158.76,385.55,Single-ply,SBD,M
Boys,67.13,8,Aumary Poindexter,Huntsville,65.77,147.42,74.84,158.76,381.02,Single-ply,SBD,M
Boys,67.13,9,Cade Hebert,Magnolia,66.68,131.54,81.65,154.22,367.41,Single-ply,SBD,M
Boys,67.13,10,Colton Costello,Magnolia West,64.59,129.27,77.11,136.08,342.46,Single-ply,SBD,M
Boys,67.13,11,Landon Thomas,Magnolia West,66.32,138.35,72.57,131.54,342.46,Single-ply,SBD,M
Boys,67.13,12,Chandler Nelson,Conroe Oak Ridge,66.77,124.74,65.77,127.01,317.51,Single-ply,SBD,M
Boys,67.13,DQ,Jaden Schroeder,Huntsville,64.14,174.63,,,,Single-ply,SBD,M
Boys,74.84,1,Kaku Asare,Conroe Woodlands College Park,68.76,226.8,102.06,208.65,537.51,Single-ply,SBD,M
Boys,74.84,2,Kendre Rogers,Huntsville,69.31,192.78,113.4,204.12,510.29,Single-ply,SBD,M
Boys,74.84,3,Chad Currie,Coldspring-Oakhurst,71.3,204.12,120.2,179.17,503.49,Single-ply,SBD,M
Boys,74.84,4,Jacob Willard,Conroe The Woodlands,68.31,192.78,99.79,192.78,485.34,Single-ply,SBD,M
Boys,74.84,5,Preston Pugh,Montgomery,70.67,167.83,106.59,199.58,474,Single-ply,SBD,M
Boys,74.84,6,Lawrence Vaughn,Port Neches-Groves,73.12,172.37,102.06,165.56,439.98,Single-ply,SBD,M
Boys,74.84,7,Jilson Carbajal,Magnolia,72.85,174.63,102.06,158.76,435.45,Single-ply,SBD,M
Boys,74.84,8,Ethan Pham,Port Neches-Groves,69.49,167.83,106.59,158.76,433.18,Single-ply,SBD,M
Boys,74.84,9,Tim Ellington,Tomball,73.03,174.63,106.59,151.95,433.18,Single-ply,SBD,M
Boys,74.84,10,Joan Catalan,Tomball,70.13,167.83,102.06,151.95,421.84,Single-ply,SBD,M
Boys,74.84,11,Jace Halbaedier,Willis,69.85,154.22,83.91,170.1,408.23,Single-ply,SBD,M
Boys,74.84,12,Cameron Collier,Willis,70.13,142.88,92.99,170.1,405.97,Single-ply,SBD,M
Boys,74.84,13,Matthew Moynahan,Magnolia,68.04,158.76,79.38,158.76,396.89,Single-ply,SBD,M
Boys,74.84,14,Ty McCarver,Willis,72.76,161.03,52.16,170.1,383.29,Single-ply,SBD,M
Boys,74.84,15,Andrew Davidson,Conroe Woodlands College Park,70.67,147.42,74.84,156.49,378.75,Single-ply,SBD,M
Boys,74.84,16,Weston Tuttle,Conroe The Woodlands,68.4,133.81,86.18,154.22,374.21,Single-ply,SBD,M
Boys,74.84,17,Nathan Leone,Conroe The Woodlands,73.21,138.35,77.11,151.95,367.41,Single-ply,SBD,M
Boys,74.84,18,Elijah Scruggs,Coldspring-Oakhurst,70.67,129.27,72.57,140.61,342.46,Single-ply,SBD,M
Boys,74.84,DQ,Tay Dennis,Willis,74.21,113.4,,,,Single-ply,SBD,M
Boys,74.84,DQ,Bryson Archer,Tomball,68.58,129.27,,,,Single-ply,SBD,M
Boys,74.84,DQ,Luke Burzynski,Tomball,74.21,142.88,,,,Single-ply,SBD,M
Boys,74.84,DQ,Luke Herring,Magnolia,67.77,,,,,Single-ply,SBD,M
Boys,82.1,1,Dj McCoy,Montgomery,79.92,204.12,97.52,208.65,510.29,Single-ply,SBD,M
Boys,82.1,2,Edgar Cabrera,Magnolia,80.1,199.58,120.2,181.44,501.22,Single-ply,SBD,M
Boys,82.1,3,Nicolas Whitfield,Magnolia,80.47,208.65,111.13,181.44,501.22,Single-ply,SBD,M
Boys,82.1,4,Michael Pena,Pasadena Memorial,78.29,181.44,111.13,201.85,494.42,Single-ply,SBD,M
Boys,82.1,5,Marquise Stubblefield,Magnolia West,79.02,190.51,99.79,190.51,480.81,Single-ply,SBD,M
Boys,82.1,6,Miles Tatum,Huntsville,79.83,176.9,108.86,183.7,469.47,Single-ply,SBD,M
Boys,82.1,7,Ben Renfro,Magnolia,78.83,183.7,90.72,185.97,460.4,Single-ply,SBD,M
Boys,82.1,8,Ethan McEntire,Magnolia,81.28,172.37,95.25,170.1,437.72,Single-ply,SBD,M
Boys,82.1,9,Logan Ecuyer,Conroe The Woodlands,80.47,147.42,92.99,167.83,408.23,Single-ply,SBD,M
Boys,82.1,10,Maliki Bethea,Pasadena Memorial,80.74,145.15,83.91,163.29,392.36,Single-ply,SBD,M
Boys,82.1,11,Colton Smith,Conroe The Woodlands,79.11,136.08,77.11,161.03,374.21,Single-ply,SBD,M
Boys,82.1,DQ,Koltin Canada,Montgomery,79.65,,,,,Single-ply,SBD,M
Boys,82.1,DQ,Blake Gandy,Tomball,81.92,149.69,,,,Single-ply,SBD,M
Boys,82.1,DQ,Isaac Shelton,Tomball,79.65,151.95,,,,Single-ply,SBD,M
Boys,82.1,DQ,Travis Johnson,Coldspring-Oakhurst,77.38,122.47,,,,Single-ply,SBD,M
Boys,82.1,DQ,Jordan Brown,Huntsville,82.01,174.63,99.79,,,Single-ply,SBD,M
Boys,89.81,1,Grant Mountain,Conroe The Woodlands,86.55,222.26,124.74,242.67,589.67,Single-ply,SBD,M
Boys,89.81,2,Darren Muirhead,Coldspring-Oakhurst,89.81,183.7,120.2,199.58,503.49,Single-ply,SBD,M
Boys,89.81,3,Luke McCaffety,Magnolia West,83.28,199.58,102.06,195.04,496.68,Single-ply,SBD,M
Boys,89.81,4,Taylor Ester,Tomball,83.28,199.58,102.06,190.51,492.15,Single-ply,SBD,M
Boys,89.81,5,Ryan LaGarce,Conroe Oak Ridge,83.19,181.44,122.47,183.7,487.61,Single-ply,SBD,M
Boys,89.81,6,Jaeryn Green,Huntsville,86.36,174.63,113.4,195.04,483.08,Single-ply,SBD,M
Boys,89.81,7,Chad Bradley,Magnolia,83.55,183.7,102.06,188.24,474,Single-ply,SBD,M
Boys,89.81,8,Titus Terrell,Navasota,84.73,183.7,102.06,181.44,467.2,Single-ply,SBD,M
Boys,89.81,9,Rylan Ritch,Magnolia,89.63,188.24,97.52,176.9,462.66,Single-ply,SBD,M
Boys,89.81,10,Cohl Cruz,Conroe Oak Ridge,83.64,163.29,111.13,181.44,455.86,Single-ply,SBD,M
Boys,89.81,11,David Castellanos,Conroe,82.92,172.37,83.91,181.44,437.72,Single-ply,SBD,M
Boys,89.81,12,Tyrek Houston,Navasota,89.27,145.15,113.4,158.76,417.3,Single-ply,SBD,M
Boys,89.81,13,Grant Timbes,Magnolia,83.46,161.03,79.38,163.29,403.7,Single-ply,SBD,M
Boys,99.79,1,Andrew English,Port Neches-Groves,95.35,258.55,165.56,231.33,655.44,Single-ply,SBD,M
Boys,99.79,2,Uriel Gutierrez,Magnolia,99.79,224.53,115.67,224.53,564.72,Single-ply,SBD,M
Boys,99.79,3,Max Gonzalez,Conroe Oak Ridge,99.16,188.24,122.47,244.94,555.65,Single-ply,SBD,M
Boys,99.79,4,Colby Lord,Montgomery,90.36,199.58,154.22,183.7,537.51,Single-ply,SBD,M
Boys,99.79,5,Geraldo Moya,Conroe,99.61,181.44,115.67,215.46,512.56,Single-ply,SBD,M
Boys,99.79,6,Jose Barahona,Tomball,97.25,197.31,108.86,204.12,510.29,Single-ply,SBD,M
Boys,99.79,7,Nathan Cabrera,Pasadena Memorial,95.8,199.58,90.72,190.51,480.81,Single-ply,SBD,M
Boys,99.79,8,Zane Nelson,Willis,94.89,181.44,102.06,174.63,458.13,Single-ply,SBD,M
Boys,99.79,9,Jacob Malesky,Magnolia,90.72,181.44,102.06,163.29,446.79,Single-ply,SBD,M
Boys,99.79,10,Caleb Monroe,Coldspring-Oakhurst,89.99,158.76,102.06,176.9,437.72,Single-ply,SBD,M
Boys,99.79,11,Cameron Burleson,Coldspring-Oakhurst,96.89,154.22,83.91,165.56,403.7,Single-ply,SBD,M
Boys,99.79,12,Dylan Guidry,Tomball,95.62,142.88,95.25,163.29,401.43,Single-ply,SBD,M
Boys,99.79,DQ,Luke Malner,Tomball,96.52,,,,,Single-ply,SBD,M
Boys,99.79,DQ,Joey Minassian,Magnolia West,96.07,215.46,,,,Single-ply,SBD,M
Boys,99.79,DQ,Brock Jeffcote,Tomball,94.8,,,,,Single-ply,SBD,M
Boys,109.77,1,Rusty Bertrand,Magnolia West,103.24,244.94,136.08,235.87,616.89,Single-ply,SBD,M
Boys,109.77,2,Hilario Rodriguez,Navasota,104.05,256.28,108.86,233.6,598.74,Single-ply,SBD,M
Boys,109.77,3,Jonathan Garcia,Magnolia West,105.87,213.19,142.88,226.8,582.87,Single-ply,SBD,M
Boys,109.77,4,Dylan Weaver,Conroe,107.95,224.53,115.67,238.14,578.33,Single-ply,SBD,M
Boys,109.77,5,Ronald Lee,Navasota,106.23,210.92,127.01,226.8,564.72,Single-ply,SBD,M
Boys,109.77,6,Travis Null,Conroe,102.78,224.53,124.74,210.92,560.19,Single-ply,SBD,M
Boys,109.77,7,Dalton Taylor,Magnolia,108.23,235.87,131.54,161.03,528.44,Single-ply,SBD,M
Boys,109.77,8,James Goodman,Montgomery,100.97,192.78,129.27,204.12,526.17,Single-ply,SBD,M
Boys,109.77,9,Justin Bennett,Magnolia West,102.33,197.31,120.2,204.12,521.63,Single-ply,SBD,M
Boys,109.77,10,Juan Hernández,Brookshire Royal,107.41,172.37,92.99,192.78,458.13,Single-ply,SBD,M
Boys,109.77,11,DeAndre Kindred,Conroe Oak Ridge,102.87,183.7,108.86,156.49,449.06,Single-ply,SBD,M
Boys,109.77,12,Jordian Martin,Brookshire Royal,100.79,158.76,102.06,181.44,442.25,Single-ply,SBD,M
Boys,109.77,13,Vincent Rankin,Coldspring-Oakhurst,105.6,142.88,102.06,183.7,428.64,Single-ply,SBD,M
Boys,109.77,14,Kaden Zampini,Port Neches-Groves,106.78,170.1,88.45,156.49,415.04,Single-ply,SBD,M
Boys,109.77,15,Nick Afflitto,Montgomery,103.24,149.69,92.99,154.22,396.89,Single-ply,SBD,M
Boys,109.77,16,Mark Bradley,Coldspring-Oakhurst,103.96,136.08,86.18,158.76,381.02,Single-ply,SBD,M
Boys,109.77,17,Grayson Brautigam,Conroe Woodlands College Park,101.42,147.42,79.38,149.69,376.48,Single-ply,SBD,M
Boys,109.77,18,Chase Wroten,Willis,107.05,147.42,83.91,136.08,367.41,Single-ply,SBD,M
Boys,109.77,19,Jessie Herrera,Willis,101.97,145.15,63.5,147.42,356.07,Single-ply,SBD,M
Boys,124.74,1,Jesse Facundo,Pasadena Memorial,123.65,263.08,158.76,272.16,694,Single-ply,SBD,M
Boys,124.74,2,Juan Yanez,Conroe Woodlands College Park,120.29,229.06,147.42,244.94,621.42,Single-ply,SBD,M
Boys,124.74,3,Demondtre Brown,Conroe,123.74,249.48,154.22,217.72,621.42,Single-ply,SBD,M
Boys,124.74,4,Dillon Brooks,Huntsville,121.29,240.4,145.15,233.6,619.15,Single-ply,SBD,M
Boys,124.74,5,Ryan Johnson,Montgomery,122.56,226.8,158.76,215.46,601.01,Single-ply,SBD,M
Boys,124.74,6,Atyias Casteel,Huntsville,123.38,210.92,122.47,208.65,542.04,Single-ply,SBD,M
Boys,124.74,7,Caleb Williams,Conroe Woodlands College Park,114.21,192.78,117.93,226.8,537.51,Single-ply,SBD,M
Boys,124.74,8,Alexis Mendoz,Magnolia West,120.2,210.92,111.13,197.31,519.36,Single-ply,SBD,M
Boys,124.74,9,Christian Garcia,Magnolia West,117.75,192.78,113.4,181.44,487.61,Single-ply,SBD,M
Boys,124.74,10,Ben Jacobs,Port Neches-Groves,112.4,204.12,99.79,170.1,474,Single-ply,SBD,M
Boys,124.74,11,Jake Malizia,Conroe Woodlands College Park,116.48,151.95,102.06,170.1,424.11,Single-ply,SBD,M
Boys,124.74,12,Eduardo Arteaga,Brookshire Royal,117.3,136.08,83.91,174.63,394.63,Single-ply,SBD,M
Boys,124.74,DQ,Nick Johnston,Conroe,110.77,226.8,142.88,,,Single-ply,SBD,M
Boys,124.74+,1,Christian Shanahan,Magnolia,134.08,267.62,142.88,247.21,657.71,Single-ply,SBD,M
Boys,124.74+,2,Brayden Arnold,Tomball,154.04,263.08,154.22,240.4,657.71,Single-ply,SBD,M
Boys,124.74+,3,David Mejia,Huntsville,132.36,254.01,156.49,240.4,650.91,Single-ply,SBD,M
Boys,124.74+,4,JD Williams,Montgomery,129.91,242.67,147.42,247.21,637.3,Single-ply,SBD,M
Boys,124.74+,5,Ryan Neugent,Conroe,131,222.26,122.47,235.87,580.6,Single-ply,SBD,M
Boys,124.74+,6,Kade Bond,Magnolia,134.63,204.12,145.15,206.38,555.65,Single-ply,SBD,M
Boys,124.74+,7,Robert Turpin,Conroe,142.25,226.8,124.74,190.51,542.04,Single-ply,SBD,M
Boys,124.74+,8,Jesse Hoke,Huntsville,135.35,206.38,113.4,201.85,521.63,Single-ply,SBD,M
Boys,124.74+,9,Josh Bankhead,Conroe Woodlands College Park,147.87,197.31,145.15,151.95,494.42,Single-ply,SBD,M
Boys,124.74+,10,Rayan Darvishi,Conroe Woodlands College Park,133.54,192.78,115.67,183.7,492.15,Single-ply,SBD,M
Boys,124.74+,11,Mason Hicks,Willis,140.43,185.97,102.06,197.31,485.34,Single-ply,SBD,M
Boys,124.74+,12,Jayden Whitten,Coldspring-Oakhurst,130.63,147.42,92.99,165.56,405.97,Single-ply,SBD,M
Boys,124.74+,DQ,Gio Lopez,Magnolia West,129.82,,129.27,,,Single-ply,SBD,M
