Division,WeightClassKg,Place,Name,Team,BodyweightKg,Best3SquatKg,Best3BenchKg,Best3DeadliftKg,TotalKg,Equipment,Event,Sex
Boys,67.13,1,Bryson Simon,Tyler Lee,64.41,136.08,81.65,158.76,376.48,Single-ply,SBD,M
Boys,67.13,2,Aurelio Aldupe,Longview Pine Tree,63.05,106.59,97.52,149.69,353.8,Single-ply,SBD,M
Boys,67.13,DQ,Jamarcus Walker,Lufkin,65.77,,90.72,174.63,,Single-ply,SBD,M
Boys,67.13,DQ,Dreak Scott,Tyler Lee,61.23,106.59,,158.76,,Single-ply,SBD,M
Boys,74.84,1,Tyler Wright,Lufkin,73.94,165.56,88.45,181.44,435.45,Single-ply,SBD,M
Boys,74.84,2,Vashon Richardson,Lufkin,74.84,136.08,95.25,181.44,412.77,Single-ply,SBD,M
Boys,74.84,3,Aneus Sutton,Tyler Lee,72.57,151.95,90.72,167.83,410.5,Single-ply,SBD,M
Boys,74.84,4,Demarcus Turner,Tyler Lee,68.49,142.88,86.18,170.1,399.16,Single-ply,SBD,M
Boys,74.84,5,Hayden Tomlinson,Tyler Lee,74.39,142.88,102.06,138.35,383.29,Single-ply,SBD,M
Boys,74.84,6,Devon Hightower,Lufkin,74.39,122.47,83.91,163.29,369.68,Single-ply,SBD,M
Boys,74.84,7,Chad Reese,Tyler Lee,73.48,136.08,79.38,140.61,356.07,Single-ply,SBD,M
Boys,82.1,1,Gilbert Sutton,Tyler Lee,77.56,188.24,99.79,192.78,480.81,Single-ply,SBD,M
Boys,82.1,2,Dez Moore,Lufkin,75.75,170.1,90.72,170.1,430.91,Single-ply,SBD,M
Boys,82.1,3,Travosky Garrett,Lufkin,78.02,142.88,88.45,192.78,424.11,Single-ply,SBD,M
Boys,82.1,4,Paxto Sandidge,Lufkin,78.93,136.08,106.59,154.22,396.89,Single-ply,SBD,M
Boys,82.1,5,Marvin Gray,Tyler Lee,79.38,131.54,86.18,163.29,381.02,Single-ply,SBD,M
Boys,82.1,DQ,Daryn Bodkins,Longview Pine Tree,75.75,129.27,,142.88,,Single-ply,SBD,M
Boys,89.81,1,Charles Robert,Longview Pine Tree,86.64,181.44,113.4,179.17,474,Single-ply,SBD,M
Boys,89.81,2,Jamarcus Anders,Lufkin,85.73,170.1,102.06,183.7,455.86,Single-ply,SBD,M
Boys,89.81,3,Donovan Reed,Tyler Lee,85.73,158.76,90.72,204.12,453.59,Single-ply,SBD,M
Boys,89.81,4,Bo Baker,Tyler Lee,82.55,165.56,102.06,174.63,442.25,Single-ply,SBD,M
Boys,89.81,5,Bush Smiley,Lufkin,89.81,154.22,99.79,183.7,437.72,Single-ply,SBD,M
Boys,89.81,6,Bryson Bean,Lufkin,86.18,142.88,108.86,181.44,433.18,Single-ply,SBD,M
Boys,89.81,7,Nic Jarrett,Tyler Lee,86.18,165.56,102.06,158.76,426.38,Single-ply,SBD,M
Boys,89.81,8,Will Calhoun,Tyler Lee,89.36,161.03,88.45,158.76,408.23,Single-ply,SBD,M
Boys,89.81,9,Eric Hands,Tyler Lee,88,154.22,88.45,163.29,405.97,Single-ply,SBD,M
Boys,89.81,10,Cortland Browning,Tyler Lee,85.28,138.35,102.06,158.76,399.16,Single-ply,SBD,M
Boys,89.81,11,Jackson Randle,Lufkin,88.9,136.08,90.72,156.49,383.29,Single-ply,SBD,M
Boys,89.81,DQ,Trent Montgomery,Longview Pine Tree,87.54,145.15,,156.49,,Single-ply,SBD,M
Boys,99.79,1,Darrell Kelly-Thomas,Lufkin,96.16,165.56,104.33,219.99,489.88,Single-ply,SBD,M
Boys,99.79,2,Devon Dacus,Tyler Lee,92.99,181.44,106.59,190.51,478.54,Single-ply,SBD,M
Boys,99.79,3,JaClarence Rainey,Lufkin,92.53,181.44,111.13,181.44,474,Single-ply,SBD,M
Boys,99.79,4,Dakota Smith,Tyler Lee,98.88,165.56,111.13,185.97,462.66,Single-ply,SBD,M
Boys,99.79,5,Josh Smith,Lufkin,92.99,154.22,106.59,190.51,451.32,Single-ply,SBD,M
Boys,99.79,6,Josh Williams,Tyler Lee,96.62,161.03,102.06,181.44,444.52,Single-ply,SBD,M
Boys,109.77,1,Bryce Braly,Tyler Lee,102.97,192.78,129.27,190.51,512.56,Single-ply,SBD,M
Boys,109.77,2,Conner Groom,Lufkin,106.14,183.7,115.67,181.44,480.81,Single-ply,SBD,M
Boys,109.77,3,Carter Halbrooks,Tyler Lee,105.23,170.1,113.4,181.44,464.93,Single-ply,SBD,M
Boys,109.77,4,V J Hebert,Tyler Lee,102.51,158.76,102.06,165.56,426.38,Single-ply,SBD,M
Boys,109.77,5,Conner Grooms,Tyler Lee,107.05,158.76,95.25,142.88,396.89,Single-ply,SBD,M
Boys,109.77,6,Idong Okon,Tyler Lee,107.95,138.35,88.45,163.29,390.09,Single-ply,SBD,M
Boys,109.77,7,Dylan Pena,Longview Pine Tree,102.51,158.76,90.72,124.74,374.21,Single-ply,SBD,M
Boys,109.77,DQ,Blade Wise-Perry,Lufkin,104.33,183.7,,190.51,,Single-ply,SBD,M
Boys,124.74,1,Kalandus Hunt,Lufkin,119.75,208.65,124.74,238.14,571.53,Single-ply,SBD,M
Boys,124.74,2,Alvin Jones,Tyler Lee,119.29,215.46,122.47,204.12,542.04,Single-ply,SBD,M
Boys,124.74,3,Shakobie McCoy,Lufkin,124.28,181.44,122.47,201.85,505.76,Single-ply,SBD,M
Boys,124.74,4,Ben Pope,Lufkin,122.47,181.44,104.33,195.04,480.81,Single-ply,SBD,M
Boys,124.74,5,Derrick Richards,Lufkin,111.13,176.9,120.2,172.37,469.47,Single-ply,SBD,M
Boys,124.74,6,Darius Walker,Lufkin,114.31,172.37,113.4,170.1,455.86,Single-ply,SBD,M
Boys,124.74,DQ,Judd Mahan,Lufkin,113.4,,140.61,,,Single-ply,SBD,M
Boys,124.74+,1,Mishobi Johnson,Tyler Lee,125.19,226.8,142.88,226.8,596.47,Single-ply,SBD,M
Boys,124.74+,2,Melvin Page,Tyler Lee,128.82,233.6,106.59,208.65,548.85,Single-ply,SBD,M
Boys,124.74+,3,Chris Collins,Tyler Lee,125.19,167.83,106.59,181.44,455.86,Single-ply,SBD,M
