Place,Name,Sex,Event,Division,WeightClassKg,Equipment,BirthYear,Team,State,BodyweightKg,Squat1Kg,Squat2Kg,Squat3Kg,Best3SquatKg,Bench1Kg,Bench2Kg,Bench3Kg,Best3BenchKg,Deadlift1Kg,Deadlift2Kg,Deadlift3Kg,Best3DeadliftKg,TotalKg
1,Elizabeth Bondurant,F,B,FR-M2,84,Raw,1958,,NJ,78.40,,,,,80,82.5,85,85.0,,,,,85
1,Elizabeth Bondurant,F,B,FR-O,84,Raw,1958,,NJ,78.40,,,,,80,82.5,85,85.0,,,,,85
1,Joseph Caliguari,M,B,M-M2,93,Single-ply,1963,,NJ,85.70,,,,,150,165,170,170.0,,,,,170
1,Steve Edwards,M,B,MR-M2,66,Raw,1962,,NJ,65.70,,,,,-102.5,102.5,107.5,107.5,,,,,107.5
1,Joseph McAuliffe,M,B,MR-M2,83,Raw,1965,,NJ,82.20,,,,,162.5,172.5,177.5,177.5,,,,,177.5
2,Mark Salandra,M,B,MR-M2,83,Raw,1962,,NJ,82.20,,,,,105,110,112.5,112.5,,,,,112.5
1,Joe Cotton,M,B,MR-M2,105,Raw,1965,,NJ,103.10,,,,,162.5,-172.5,-172.5,162.5,,,,,162.5
1,Jules Pellegrino,M,B,MR-M4,66,Raw,1943,,NJ,65.70,,,,,93,95,97.5,97.5,,,,,97.5
DQ,Leonard Bello,M,B,MR-M4,93,Raw,1937,,NJ,89.30,,,,,-80,-80,-80,,,,,,
1,Jason Manenkoff,M,B,MR-O,83,Raw,1982,,NJ,79.30,,,,,180,-187.5,-192.5,180.0,,,,,180
1,Kelvin Marquez,M,B,MR-T2,66,Raw,2001,,NJ,64.30,,,,,105,110,-112.5,110.0,,,,,110
1,Danielle Gordon,F,SBD,FR-Jr,52,Raw,1994,,NJ,51.70,-97.5,102.5,105,105.0,52.5,55,-57.5,55.0,105,112.5,-120,112.5,272.5
2,Kristine Demagajes,F,SBD,FR-Jr,52,Raw,1996,Adelante Barbell Club,NJ,50.30,77.5,82.5,90,90.0,47.5,50,52.5,52.5,110,117.5,122.5,122.5,265
1,Contessa Lai,F,SBD,FR-Jr,57,Raw,1994,,NJ,56.50,107.5,112.5,115,115.0,60,-65,65,65.0,145,155,-160,155.0,335
2,Vivian Liew,F,SBD,FR-Jr,57,Raw,1994,,NJ,56.70,-117.5,117.5,125,125.0,67.5,-72.5,72.5,72.5,120,130,-137.5,130.0,327.5
3,Hannah Aurelio,F,SBD,FR-Jr,57,Raw,1994,,NJ,57.00,95,-102.5,102.5,102.5,45,50,-52.5,50.0,-115,115,-120,115.0,267.5
1,Jennifer Bednarz,F,SBD,FR-Jr,63,Raw,1996,,NJ,60.60,125,132.5,-137.5,132.5,55,60,62.5,62.5,135,142.5,-152.5,142.5,337.5
2,Amanda Printon,F,SBD,FR-Jr,63,Raw,1997,,NJ,61.30,120,-127.5,-127.5,120.0,57.5,62.5,-65,62.5,145,155,-165,155.0,337.5
3,Christine Martirez,F,SBD,FR-Jr,63,Raw,1995,,NJ,60.60,120,127.5,130,130.0,47.5,50,-52.5,50.0,132.5,145,-147.5,145.0,325
4,Viviana Ortega,F,SBD,FR-Jr,63,Raw,1995,,NJ,60.00,85,90,92.5,92.5,42.5,-45,-45,42.5,110,117.5,122.5,122.5,257.5
5,Victoria Sharp,F,SBD,FR-Jr,63,Raw,1996,,NJ,58.50,87.5,92.5,95,95.0,40,-42.5,,40.0,100,105,110,110.0,245
1,Cassandra Concepcion,F,SBD,FR-Jr,72,Raw,1998,,NJ,68.70,-107.5,107.5,122.5,122.5,47.5,52.5,-60,52.5,130,140,-150,140.0,315
2,Jeeraphan Suwannawisut,F,SBD,FR-Jr,72,Raw,1998,,NJ,65.00,97.5,105,115,115.0,47.5,-52.5,-52.5,47.5,132.5,140,-152.5,140.0,302.5
3,Lex Constantinides,F,SBD,FR-Jr,72,Raw,1998,,NJ,70.10,-95,95,100,100.0,47.5,52.5,-55,52.5,117.5,-120,120,120.0,272.5
1,Alessandra Chieff,F,SBD,FR-Jr,84,Raw,1996,Iron Arena,NJ,76.70,110,117.5,122.5,122.5,57.5,60,62.5,62.5,132.5,140,-142.5,140.0,325
1,Michelle Szczesny,F,SBD,FR-M1,72,Raw,1976,,NJ,70.60,97.5,-105,107.5,107.5,55,62.5,65,65.0,117.5,125,132.5,132.5,305
1,Deborah Casinelli,F,SBD,FR-M1,84,Raw,1976,,NJ,79.30,145,152.5,-160,152.5,67.5,72.5,75,75.0,137.5,145,-155,145.0,372.5
2,Christine Ingleton,F,SBD,FR-M1,84,Raw,1970,,NJ,81.80,115,125,127.5,127.5,60,65,-72.5,65.0,132.5,137.5,145,145.0,337.5
3,Amy Attanasio,F,SBD,FR-M1,84,Raw,1974,,NJ,82.10,107.5,117.5,122.5,122.5,62.5,70,-75,70.0,125,135,142.5,142.5,335
1,Trina Scordo,F,SBD,FR-M1,84+,Raw,1971,,NJ,93.80,100,-105,105,105.0,65,70,-75,70.0,150,157.5,162.5,162.5,337.5
2,Natasha Mack,F,SBD,FR-M1,84+,Raw,1977,Iron Arena,NJ,112.70,107.5,112.5,120,120.0,47.5,50,52.5,52.5,90,110,130,130.0,302.5
1,Gina O'Neill,F,SBD,FR-M2,52,Raw,1965,,NJ,50.70,-75,-75,75,75.0,50,52.5,55,55.0,97.5,100,102.5,102.5,232.5
1,Amy Surkin,F,SBD,FR-M2,63,Raw,1964,Iron Arena,NJ,61.70,77.5,82.5,87.5,87.5,47.5,50,52.5,52.5,105,112.5,-117.5,112.5,252.5
1,Mary Elise Ricker,F,SBD,FR-M2,72,Raw,1962,,NJ,69.80,90,92.5,95,95.0,55,57.5,-60,57.5,122.5,127.5,132.5,132.5,285
1,Scherry Wiaczek,F,SBD,FR-M2,84,Raw,1962,,NJ,72.70,65,-75,82.5,82.5,37.5,42.5,-47.5,42.5,82.5,92.5,-107.5,92.5,217.5
1,Orit Binshtock,F,SBD,FR-O,47,Raw,1988,Iron Arena,NJ,45.80,85,90,-95,90.0,-45,47.5,50,50.0,87.5,95,105,105.0,245
2,Lauren Commisso,F,SBD,FR-O,47,Raw,1986,TNT Strength and Conditioning,NJ,44.50,75,77.5,82.5,82.5,40,42.5,-47.5,42.5,102.5,110,115,115.0,240
1,Nicolette Mabeza,F,SBD,FR-O,52,Raw,1992,,NJ,50.60,102.5,110,-115,110.0,60,65,-67.5,65.0,115,125,130,130.0,305
2,Ashley Naftaly,F,SBD,FR-O,52,Raw,1995,Iron Arena,NJ,51.60,87.5,92.5,95,95.0,60,62.5,65,65.0,117.5,125,130,130.0,290
3,Lilyann Hoang,F,SBD,FR-O,52,Raw,1991,Adelante Barbell Club,NJ,51.40,-92.5,92.5,95,95.0,47.5,52.5,-57.5,52.5,90,97.5,102.5,102.5,250
4,Gina O'Neill,F,SBD,FR-O,52,Raw,1965,,NJ,50.70,-75,-75,75,75.0,50,52.5,55,55.0,97.5,100,102.5,102.5,232.5
1,Kirsty Flores,F,SBD,FR-O,57,Raw,1994,,NJ,56.40,130,137.5,-142.5,137.5,65,70,-75,70.0,155,165,172.5,172.5,380
2,Julia Eckart,F,SBD,FR-O,57,Raw,1987,Iron Arena,NJ,56.50,120,125,127.5,127.5,77.5,-80,-80,77.5,157.5,165,172.5,172.5,377.5
3,Vivian Liew,F,SBD,FR-O,57,Raw,1994,,NJ,56.70,-117.5,117.5,125,125.0,67.5,-72.5,72.5,72.5,120,130,-137.5,130.0,327.5
4,Stefani Polifrone,F,SBD,FR-O,57,Raw,1990,,NJ,54.70,102.5,-107.5,-107.5,102.5,60,-65,-65,60.0,147.5,155,-160,155.0,317.5
5,Rosanne Manalo,F,SBD,FR-O,57,Raw,1994,Blackops/OGS,NJ,56.70,97.5,105,112.5,112.5,47.5,52.5,-57.5,52.5,120,135,140,140.0,305
6,Kaitlyn Fiore,F,SBD,FR-O,57,Raw,1990,,NJ,56.80,105,110,-112.5,110.0,57.5,60,-62.5,60.0,-130,-135,135,135.0,305
7,Martine Acanfora,F,SBD,FR-O,57,Raw,1995,,NJ,55.90,95,100,105,105.0,62.5,65,67.5,67.5,112.5,120,127.5,127.5,300
8,Jennifer St. Onge,F,SBD,FR-O,57,Raw,1991,,NJ,55.00,87.5,-92.5,-95,87.5,55,57.5,-60,57.5,132.5,135,142.5,142.5,287.5
9,Olga Dayts,F,SBD,FR-O,57,Raw,1981,,NJ,54.90,100,-105,-105,100.0,50,52.5,55,55.0,105,112.5,120,120.0,275
10,Michelle McCabe,F,SBD,FR-O,57,Raw,1984,,NJ,55.20,82.5,90,-100,90.0,57.5,60,62.5,62.5,105,110,115,115.0,267.5
1,Melissa Erwin,F,SBD,FR-O,63,Raw,1981,,NJ,62.70,130,137.5,145,145.0,80,85,-87.5,85.0,157.5,167.5,177.5,177.5,407.5
2,Lauren Mandell,F,SBD,FR-O,63,Raw,1993,,NJ,61.60,-112.5,115,120,120.0,70,75,-77.5,75.0,142.5,150,-155,150.0,345
3,Jennifer Bednarz,F,SBD,FR-O,63,Raw,1996,Adelante Barbell Club,NJ,60.60,125,132.5,-137.5,132.5,55,60,62.5,62.5,135,142.5,-152.5,142.5,337.5
4,Amanda Printon,F,SBD,FR-O,63,Raw,1997,,NJ,61.30,120,-127.5,-127.5,120.0,57.5,62.5,-65,62.5,145,155,-165,155.0,337.5
5,Allyson Hansen,F,SBD,FR-O,63,Raw,1985,,NJ,58.60,102.5,110,115,115.0,57.5,62.5,-65,62.5,140,147.5,155,155.0,332.5
6,Christine Martirez,F,SBD,FR-O,63,Raw,1995,,NJ,60.60,120,127.5,130,130.0,47.5,50,-52.5,50.0,132.5,145,-147.5,145.0,325
7,Anita Nash,F,SBD,FR-O,63,Raw,1988,,NJ,61.40,120,130,-135,130.0,42.5,47.5,-52.5,47.5,-130,132.5,147.5,147.5,325
8,Trisha Arzadon,F,SBD,FR-O,63,Raw,1992,,NJ,60.60,-90,92.5,-97.5,92.5,50,55,-62.5,55.0,112.5,-117.5,122.5,122.5,270
9,Viviana Ortega,F,SBD,FR-O,63,Raw,1995,,NJ,60.00,85,90,92.5,92.5,42.5,-45,-45,42.5,110,117.5,122.5,122.5,257.5
1,Chelsea Nkwodimmah,F,SBD,FR-O,72,Raw,1989,,NJ,71.60,162.5,170,177.5,177.5,82.5,-87.5,-87.5,82.5,192.5,197.5,202.5,202.5,462.5
2,Tisha Payne,F,SBD,FR-O,72,Raw,1983,,NJ,67.80,152.5,160,-165,160.0,70,-75,-75,70.0,165,-182.5,-182.5,165.0,395
3,Meghan Hogan,F,SBD,FR-O,72,Raw,1990,,NJ,67.40,135,142.5,-152.5,142.5,85,92.5,-97.5,92.5,147.5,155,-167.5,155.0,390
4,Ashley Nash,F,SBD,FR-O,72,Raw,1989,,NJ,71.70,125,-132.5,-132.5,125.0,72.5,-77.5,-77.5,72.5,145,152.5,165,165.0,362.5
5,Cassandra Concepcion,F,SBD,FR-O,72,Raw,1998,,NJ,68.70,-107.5,107.5,122.5,122.5,47.5,52.5,-60,52.5,130,140,-150,140.0,315
6,Samantha Farina,F,SBD,FR-O,72,Raw,1993,,NJ,69.80,102.5,110,120,120.0,57.5,-65,-65,57.5,120,137.5,-155,137.5,315
7,Khirika Jamison,F,SBD,FR-O,72,Raw,1984,,NJ,66.40,110,-125,-130,110.0,60,65,67.5,67.5,120,130,-135,130.0,307.5
8,Danielle Zakowski,F,SBD,FR-O,72,Raw,1984,,NJ,68.70,-102.5,102.5,-112.5,102.5,55,-60,-60,55.0,132.5,140,-155,140.0,297.5
9,Melissa Simsen,F,SBD,FR-O,72,Raw,1988,,NJ,69.50,92.5,97.5,102.5,102.5,45,-47.5,-47.5,45.0,122.5,127.5,-132.5,127.5,275
10,Kelly Seccamanie,F,SBD,FR-O,72,Raw,1981,,NJ,68.60,82.5,85,87.5,87.5,55,57.5,-62.5,57.5,102.5,110,120,120.0,265
1,Evie Lamont,F,SBD,FR-O,84,Raw,1989,,NJ,82.20,135,145,155,155.0,60,67.5,-72.5,67.5,152.5,165,-170,165.0,387.5
2,Deborah Casinelli,F,SBD,FR-O,84,Raw,1976,,NJ,79.30,145,152.5,-160,152.5,67.5,72.5,75,75.0,137.5,145,-155,145.0,372.5
3,Terri Ann Sgarlata,F,SBD,FR-O,84,Raw,1981,,NJ,78.20,112.5,125,127.5,127.5,67.5,72.5,-77.5,72.5,150,162.5,170,170.0,370
4,Jacqueline Thompson,F,SBD,FR-O,84,Raw,1990,,NJ,83.20,122.5,-130,130,130.0,62.5,67.5,-75,67.5,150,155,-160,155.0,352.5
5,Rebecca Morris,F,SBD,FR-O,84,Raw,1993,,NJ,83.30,105,115,125,125.0,60,65,67.5,67.5,132.5,145,-162.5,145.0,337.5
6,Leslie O'Connor,F,SBD,FR-O,84,Raw,1983,,NJ,80.80,115,120,125,125.0,67.5,70,-72.5,70.0,130,132.5,140,140.0,335
7,Amy Attanasio,F,SBD,FR-O,84,Raw,1974,,NJ,82.10,107.5,117.5,122.5,122.5,62.5,70,-75,70.0,125,135,142.5,142.5,335
8,Amanda Darnowski,F,SBD,FR-O,84,Raw,1979,,NJ,80.80,-115,-115,115,115.0,60,65,70,70.0,115,122.5,130,130.0,315
1,Renee-Rose Garcia,F,SBD,FR-O,84+,Raw,1988,,NJ,119.90,175,187.5,195,195.0,80,82.5,87.5,87.5,172.5,185,-190,185.0,467.5
2,Samantha White,F,SBD,FR-O,84+,Raw,1993,,NJ,91.10,115,120,125,125.0,55,57.5,-60,57.5,120,127.5,-135,127.5,310
DQ,Isabel Cunha,F,SBD,FR-T3,52,Raw,1998,,NJ,47.60,87.5,92.5,97.5,97.5,-47.5,-47.5,-47.5,,110,115,120,120.0,
1,Cristina Pereira,F,SBD,FR-T3,57,Raw,1999,,NJ,56.30,-87.5,90,92.5,92.5,57.5,-60,-65,57.5,100,105,-110,105.0,255
1,Hannah Coleman,F,SBD,FR-T3,63,Raw,1999,,NJ,61.80,-75,-75,75,75.0,52.5,55,60,60.0,105,107.5,112.5,112.5,247.5
1,Keiana Castellanos,F,SBD,FR-T3,84,Raw,1999,,NJ,79.00,57.5,60,67.5,67.5,32.5,35,37.5,37.5,82.5,87.5,92.5,92.5,197.5
DQ,Alexandra Piirimae,F,SBD,FR-T3,84,Raw,2000,,NJ,74.10,-80,-80,-80,,40,42.5,-47.5,42.5,85,90,95,95.0,
1,Diana Yturbe,F,SBD,FR-Y3,63,Raw,2004,,NJ,61.70,97.5,102.5,107.5,107.5,52.5,58,-60,58.0,130,140,-145,140.0,305.5
DQ,Ron Falcone,M,SBD,M-M2,105,Single-ply,1961,,NJ,94.60,207.5,-222.5,222.5,222.5,-145,-150,-150,,,,,,
1,William Schemel,M,SBD,M-M2,120,Single-ply,1959,,NJ,106.00,217.5,-227.5,-227.5,217.5,175,182.5,185,185.0,225,237.5,240,240.0,642.5
1,Charles McKelvey,M,SBD,M-O,83,Single-ply,1992,,NJ,83.00,197.5,-210,215,215.0,142.5,150,-155,150.0,227.5,232.5,-235,232.5,597.5
G,Christopher Young #2,M,SBD,MR-G,83,Raw,1985,,NJ,79.90,132.5,140,147.5,147.5,92.5,97.5,102.5,102.5,167.5,177.5,180,180.0,430
1,Shaheed Bryant,M,SBD,MR-Jr,59,Raw,1997,,NJ,56.50,140,147.5,155,155.0,-130,130,-145,130.0,180,195,202.5,202.5,487.5
2,Arnold Majano,M,SBD,MR-Jr,59,Raw,1995,Adelante Barbell Club,NJ,57.00,-155,155,165,165.0,105,110,115,115.0,165,-175,175,175.0,455
1,Michael Freno,M,SBD,MR-Jr,66,Raw,1996,,NJ,65.20,180,-185,-185,180.0,115,-120,-120,115.0,227.5,-232.5,-232.5,227.5,522.5
2,Michael Balahadia,M,SBD,MR-Jr,66,Raw,1995,,NJ,64.80,175,185,,185.0,85,92.5,-95,92.5,-210,210,222.5,222.5,500
3,Aakash Raman,M,SBD,MR-Jr,66,Raw,1997,,NJ,64.00,150,157.5,162.5,162.5,100,107.5,-110,107.5,197.5,207.5,-215,207.5,477.5
4,Anthony Punla,M,SBD,MR-Jr,66,Raw,1997,,NJ,65.20,145,147.5,150,150.0,95,97.5,-102.5,97.5,195,-200,-200,195.0,442.5
5,Jonah Varughese,M,SBD,MR-Jr,66,Raw,1997,,NJ,64.10,132.5,140,142.5,142.5,70,75,-77.5,75.0,165,175,180,180.0,397.5
1,Lawrence Abner,M,SBD,MR-Jr,74,Raw,1994,,NJ,71.60,230,240,-247.5,240.0,127.5,135,-140,135.0,275,287.5,295,295.0,670
2,Nico Flores,M,SBD,MR-Jr,74,Raw,1998,,NJ,73.00,-205,217.5,230,230.0,135,145,150,150.0,242.5,257.5,270,270.0,650
3,Xavier Urena,M,SBD,MR-Jr,74,Raw,1994,,NJ,72.60,187.5,200,207.5,207.5,122.5,130,132.5,132.5,250,262.5,-267.5,262.5,602.5
4,Joseph Bierly,M,SBD,MR-Jr,74,Raw,1994,,NJ,72.10,202.5,210,-215,210.0,110,-112.5,-112.5,110.0,247.5,255,-260,255.0,575
5,Thai Nguyen,M,SBD,MR-Jr,74,Raw,1994,,NJ,72.80,170,-175,-175,170.0,117.5,122.5,-130,122.5,200,210,-220,210.0,502.5
6,Michael Yang,M,SBD,MR-Jr,74,Raw,1997,,NJ,73.40,145,-155,155,155.0,102.5,107.5,-112.5,107.5,185,195,200,200.0,462.5
7,Gadnerre Gutiza,M,SBD,MR-Jr,74,Raw,1994,,NJ,72.80,160,165,-170,165.0,92.5,-97.5,-97.5,92.5,175,185,195,195.0,452.5
8,Depion Saha,M,SBD,MR-Jr,74,Raw,1996,,NJ,73.60,152.5,157.5,-162.5,157.5,90,95,-97.5,95.0,182.5,190,-195,190.0,442.5
DQ,George Ibrahim,M,SBD,MR-Jr,74,Raw,1995,,NJ,72.10,172.5,175,-180,175.0,-112.5,-112.5,-112.5,,185,-187.5,-187.5,185.0,
1,Nicholas Tribelli,M,SBD,MR-Jr,83,Raw,1996,,NJ,82.50,-197.5,207.5,220,220.0,130,137.5,-142.5,137.5,-215,232.5,245,245.0,602.5
2,Justin Bronsky,M,SBD,MR-Jr,83,Raw,1998,,NJ,81.70,-215,-215,215,215.0,132.5,140,145,145.0,207.5,222.5,237.5,237.5,597.5
3,Alan Macioszek,M,SBD,MR-Jr,83,Raw,1994,Iron Arena,NJ,82.00,197.5,207.5,212.5,212.5,142.5,147.5,-152.5,147.5,205,215,-220,215.0,575
4,Manuel Nino Malcampo,M,SBD,MR-Jr,83,Raw,1995,,NJ,81.90,192.5,200,207.5,207.5,102.5,110,117.5,117.5,225,-240,-240,225.0,550
5,Michael Abdon,M,SBD,MR-Jr,83,Raw,1997,,NJ,81.20,165,175,-182.5,175.0,110,115,120,120.0,225,235,-237.5,235.0,530
6,Sebastian Barrera,M,SBD,MR-Jr,83,Raw,1998,,NJ,80.80,-157.5,157.5,170,170.0,110,120,-125,120.0,207.5,220,-230,220.0,510
7,Aneesh Godbole,M,SBD,MR-Jr,83,Raw,1996,,NJ,82.00,162.5,172.5,180,180.0,100,105,107.5,107.5,200,210,222.5,222.5,510
8,Carl Gocon,M,SBD,MR-Jr,83,Raw,1997,,NJ,82.90,175,185,-192.5,185.0,92.5,97.5,102.5,102.5,205,-215,-215,205.0,492.5
9,Casey Winter,M,SBD,MR-Jr,83,Raw,1997,,NJ,78.90,150,160,165,165.0,-102.5,107.5,115,115.0,190,200,-207.5,200.0,480
10,Peter Meawad,M,SBD,MR-Jr,83,Raw,1995,,NJ,82.10,132.5,142.5,147.5,147.5,110,117.5,122.5,122.5,192.5,207.5,-217.5,207.5,477.5
11,Josel Mateo,M,SBD,MR-Jr,83,Raw,1995,,NJ,82.20,150,160,167.5,167.5,95,100,-105,100.0,187.5,202.5,-205,202.5,470
12,Alan Shindelman,M,SBD,MR-Jr,83,Raw,1997,,NJ,80.70,157.5,167.5,172.5,172.5,92.5,97.5,100,100.0,172.5,182.5,-185,182.5,455
13,Christopher O'Connor,M,SBD,MR-Jr,83,Raw,1996,,NJ,82.70,132.5,142.5,152.5,152.5,100,105,-112.5,105.0,162.5,175,-182.5,175.0,432.5
1,Devin DeFeis,M,SBD,MR-Jr,93,Raw,1996,,NJ,88.90,215,222.5,230,230.0,135,145,150,150.0,220,230,235,235.0,615
2,Raymond Razon,M,SBD,MR-Jr,93,Raw,1996,Adelante Barbell Club,NJ,91.00,207.5,-217.5,217.5,217.5,112.5,120,125,125.0,222.5,232.5,242.5,242.5,585
3,John Flannelly,M,SBD,MR-Jr,93,Raw,1995,,NJ,91.80,185,190,197.5,197.5,145,150,-155,150.0,205,-222.5,-222.5,205.0,552.5
4,Brendan Monaghan,M,SBD,MR-Jr,93,Raw,1997,,NJ,91.30,167.5,182.5,187.5,187.5,137.5,142.5,147.5,147.5,185,200,205,205.0,540
5,Benjamin Constantinides,M,SBD,MR-Jr,93,Raw,1998,,NJ,92.80,-167.5,167.5,177.5,177.5,87.5,92.5,95,95.0,225,237.5,245,245.0,517.5
6,David Blyd,M,SBD,MR-Jr,93,Raw,1997,,NJ,90.30,160,170,180,180.0,112.5,120,125,125.0,185,195,205,205.0,510
1,Joseph Forkan,M,SBD,MR-Jr,105,Raw,1998,,NJ,103.40,210,-220,-220,210.0,142.5,150,-155,150.0,255,267.5,280,280.0,640
2,Sam Arnedt,M,SBD,MR-Jr,105,Raw,1995,,NJ,100.70,215,222.5,-227.5,222.5,125,-132.5,,125.0,257.5,272.5,287.5,287.5,635
3,Jake Schneider,M,SBD,MR-Jr,105,Raw,1996,,NJ,101.00,220,235,245,245.0,-135,142.5,145,145.0,195,210,220,220.0,610
4,Vincent Incorvaia,M,SBD,MR-Jr,105,Raw,1994,,NJ,101.10,195,210,220,220.0,137.5,-147.5,-147.5,137.5,215,-232.5,-232.5,215.0,572.5
5,Eric Winter,M,SBD,MR-Jr,105,Raw,1995,,NJ,102.10,182.5,195,197.5,197.5,147.5,-160,-160,147.5,210,222.5,-230,222.5,567.5
6,Nathaniel Wolf,M,SBD,MR-Jr,105,Raw,1996,,NJ,102.90,175,185,190,190.0,-127.5,127.5,135,135.0,215,225,235,235.0,560
7,Raymund Viado,M,SBD,MR-Jr,105,Raw,1998,,NJ,100.80,187.5,195,-200,195.0,142.5,-150,-150,142.5,217.5,-222.5,-222.5,217.5,555
1,Bernard Hendricks,M,SBD,MR-M1,74,Raw,1977,,NJ,71.90,170,180,187.5,187.5,100,107.5,112.5,112.5,190,-197.5,205,205.0,505
2,Francisco Arcibal III,M,SBD,MR-M1,74,Raw,1975,Blackops/OGS,NJ,72.20,147.5,-160,165,165.0,125,130,-132.5,130.0,200,210,-222.5,210.0,505
1,James Benemerito,M,SBD,MR-M1,83,Raw,1969,Blackops/OGS,NJ,80.80,195,217.5,-230,217.5,132.5,142.5,150,150.0,230,-242.5,245,245.0,612.5
2,Alex Diaz #1,M,SBD,MR-M1,83,Raw,1971,,NJ,81.00,-172.5,172.5,185,185.0,115,120,125,125.0,-222.5,222.5,-235,222.5,532.5
1,Darren Nemow,M,SBD,MR-M1,93,Raw,1973,,NJ,91.10,207.5,227.5,-240,227.5,132.5,140,-142.5,140.0,225,240,-245,240.0,607.5
2,Jason Matta,M,SBD,MR-M1,93,Raw,1977,,NJ,91.30,202.5,-217.5,-217.5,202.5,152.5,-162.5,-162.5,152.5,235,242.5,252.5,252.5,607.5
3,Omar Buker,M,SBD,MR-M1,93,Raw,1973,,NJ,86.00,160,172.5,185,185.0,95,105,112.5,112.5,177.5,195,-210,195.0,492.5
1,David Watson #2,M,SBD,MR-M1,105,Raw,1971,,NJ,100.80,157.5,167.5,172.5,172.5,127.5,132.5,-137.5,132.5,205,210,-212.5,210.0,515
2,Matthew Bernstein,M,SBD,MR-M1,105,Raw,1973,TNT Strength and Conditioning,NJ,103.90,147.5,155,-162.5,155.0,130,-137.5,-137.5,130.0,205,220,222.5,222.5,507.5
1,Ivan Vasev,M,SBD,MR-M1,120+,Raw,1973,,NJ,131.50,220,237.5,255,255.0,165,182.5,202.5,202.5,237.5,250,-272.5,250.0,707.5
2,Freddie Torres,M,SBD,MR-M1,120+,Raw,1971,,NJ,121.80,-242.5,-247.5,247.5,247.5,142.5,147.5,150,150.0,-210,210,215,215.0,612.5
DQ,Eric Verbel,M,SBD,MR-M2,66,Raw,1965,,NJ,64.40,-122.5,-125,-125,,72.5,75,-82.5,75.0,140,145,160,160.0,
1,John Dorf,M,SBD,MR-M2,93,Raw,1959,,NJ,89.90,110,-120,120,120.0,70,75,-80,75.0,167.5,175,-182.5,175.0,370
1,Jeff Sperber,M,SBD,MR-M2,105,Raw,1960,,NJ,103.00,182.5,195,202.5,202.5,130,140,-145,140.0,215,232.5,-240,232.5,575
1,Richard Acosta,M,SBD,MR-M2,120,Raw,1967,,NJ,116.60,-182.5,195,197.5,197.5,127.5,135,140,140.0,220,237.5,245,245.0,582.5
1,Frank Morea,M,SBD,MR-M3,83,Raw,1957,,NJ,81.70,147.5,160,162.5,162.5,120,-127.5,-127.5,120.0,207.5,227.5,-230,227.5,510
1,Peter Banos,M,SBD,MR-M3,93,Raw,1954,,NJ,91.10,150,-160,-160,150.0,85,87.5,95,95.0,197.5,210,220,220.0,465
1,Arnold Majano,M,SBD,MR-O,59,Raw,1995,,NJ,57.00,-155,155,165,165.0,105,110,115,115.0,165,-175,175,175.0,455
2,Enrico Cabredo,M,SBD,MR-O,59,Raw,1992,,NJ,58.10,152.5,-162.5,-162.5,152.5,87.5,90,92.5,92.5,175,185,-187.5,185.0,430
3,Nicholas Oppis,M,SBD,MR-O,59,Raw,1993,,NJ,58.20,115,125,127.5,127.5,67.5,75,-80,75.0,147.5,160,-167.5,160.0,362.5
4,Dylan McDonald,M,SBD,MR-O,59,Raw,1994,,NJ,44.50,75,80,-87.5,80.0,57.5,60,-67.5,60.0,115,120,125,125.0,265
1,Michael Freno,M,SBD,MR-O,66,Raw,1996,,NJ,65.20,180,-185,-185,180.0,115,-120,-120,115.0,227.5,-232.5,-232.5,227.5,522.5
2,Ariel James Barros,M,SBD,MR-O,66,Raw,1992,Blackops/OGS,NJ,65.00,-152.5,-165,165,165.0,107.5,115,117.5,117.5,207.5,227.5,-230,227.5,510
3,Jorge Ramirez-Garcia,M,SBD,MR-O,66,Raw,1999,,NJ,64.70,162.5,165,-167.5,165.0,97.5,102.5,105,105.0,220,232.5,-241,232.5,502.5
1,Lawrence Abner,M,SBD,MR-O,74,Raw,1994,,NJ,71.60,230,240,-247.5,240.0,127.5,135,-140,135.0,275,287.5,295,295.0,670
2,Nico Flores,M,SBD,MR-O,74,Raw,1998,Adelante Barbell Club,NJ,73.00,-205,217.5,230,230.0,135,145,150,150.0,242.5,257.5,270,270.0,650
3,Timothy Thebodeau,M,SBD,MR-O,74,Raw,1993,Adelante Barbell Club,NJ,73.50,197.5,207.5,215,215.0,125,132.5,-137.5,132.5,245,262.5,272.5,272.5,620
4,Daniel Chen,M,SBD,MR-O,74,Raw,1993,,NJ,72.50,195,205,207.5,207.5,135,142.5,145,145.0,222.5,235,-240,235.0,587.5
5,Kunikazu Nishimura,M,SBD,MR-O,74,Raw,1991,,NJ,73.00,187.5,197.5,202.5,202.5,127.5,132.5,135,135.0,222.5,235,247.5,247.5,585
6,Joseph Bierly,M,SBD,MR-O,74,Raw,1994,,NJ,72.10,202.5,210,-215,210.0,110,-112.5,-112.5,110.0,247.5,255,-260,255.0,575
7,Renato Capillas Jr,M,SBD,MR-O,74,Raw,1992,Blackops/OGS,NJ,73.40,170,175,182.5,182.5,95,97.5,102.5,102.5,-210,210,230,230.0,515
8,Joseph Casamassima,M,SBD,MR-O,74,Raw,1999,,NJ,72.70,165,175,185,185.0,120,125,127.5,127.5,187.5,-197.5,197.5,197.5,510
9,Francisco Arcibal III,M,SBD,MR-O,74,Raw,1975,,NJ,72.20,147.5,-160,165,165.0,125,130,-132.5,130.0,200,210,-222.5,210.0,505
10,Justin Cocuzza,M,SBD,MR-O,74,Raw,1985,,NJ,73.10,142.5,150,155,155.0,110,117.5,125,125.0,150,157.5,167.5,167.5,447.5
1,Kristian Elvina,M,SBD,MR-O,83,Raw,1985,,NJ,82.20,212.5,225,-230,225.0,155,160,-165,160.0,262.5,270,275,275.0,660
2,Daryl Duncan,M,SBD,MR-O,83,Raw,1980,,NJ,81.80,192.5,205,-215,205.0,185,192.5,197.5,197.5,240,252.5,-265,252.5,655
3,Jhonson Solano,M,SBD,MR-O,83,Raw,1993,,NJ,82.10,217.5,227.5,235,235.0,150,157.5,-165,157.5,260,-272.5,-275,260.0,652.5
4,Jordan Marcus,M,SBD,MR-O,83,Raw,1990,,NJ,81.20,-232.5,232.5,245,245.0,125,130,-137.5,130.0,232.5,252.5,-272.5,252.5,627.5
5,James Benemerito,M,SBD,MR-O,83,Raw,1969,,NJ,80.80,195,217.5,-230,217.5,132.5,142.5,150,150.0,230,-242.5,245,245.0,612.5
6,Ruben Nazario,M,SBD,MR-O,83,Raw,1984,TNT Strength and Conditioning,NJ,82.00,185,195,205,205.0,150,160,-167.5,160.0,235,247.5,-260,247.5,612.5
7,Adam Bossard,M,SBD,MR-O,83,Raw,1994,,NJ,81.90,210,220,227.5,227.5,120,-127.5,-127.5,120.0,227.5,237.5,-242.5,237.5,585
8,Kevin Paiva,M,SBD,MR-O,83,Raw,1990,Adelante Barbell Club,NJ,81.20,190,202.5,207.5,207.5,125,132.5,137.5,137.5,220,232.5,-235,232.5,577.5
9,Stephen Happersett,M,SBD,MR-O,83,Raw,1991,,NJ,82.10,192.5,202.5,-215,202.5,137.5,-142.5,145,145.0,220,-237.5,-237.5,220.0,567.5
10,Nicholas Capanna,M,SBD,MR-O,83,Raw,1991,,NJ,82.10,192.5,205,-207.5,205.0,-127.5,127.5,132.5,132.5,227.5,-240,-240,227.5,565
11,Leo Nicholi Codog,M,SBD,MR-O,83,Raw,1992,,NJ,80.90,177.5,187.5,192.5,192.5,110,112.5,117.5,117.5,237.5,250,-255,250.0,560
12,Manuel Nino Malcampo,M,SBD,MR-O,83,Raw,1995,,NJ,81.90,192.5,200,207.5,207.5,102.5,110,117.5,117.5,225,-240,-240,225.0,550
13,Chris Otundo,M,SBD,MR-O,83,Raw,1983,,NJ,82.10,185,190,197.5,197.5,140,145,147.5,147.5,200,205,-210,205.0,550
14,Adam Swift,M,SBD,MR-O,83,Raw,1993,,NJ,80.60,160,170,182.5,182.5,117.5,125,132.5,132.5,215,227.5,-237.5,227.5,542.5
15,Rob Tandoc,M,SBD,MR-O,83,Raw,1987,,NJ,81.00,185,192.5,200,200.0,120,125,-130,125.0,185,192.5,200,200.0,525
16,Matthew Percia,M,SBD,MR-O,83,Raw,1984,,NJ,78.90,165,175,-187.5,175.0,105,110,115,115.0,-200,212.5,230,230.0,520
17,Nick Serra,M,SBD,MR-O,83,Raw,1994,,NJ,82.20,155,162.5,-167.5,162.5,120,127.5,-132.5,127.5,200,210,-215,210.0,500
18,David Sorce,M,SBD,MR-O,83,Raw,1987,,NJ,82.00,150,160,-170,160.0,120,-125,-127.5,120.0,182.5,192.5,200,200.0,480
19,Stanley Ngai,M,SBD,MR-O,83,Raw,1990,,NJ,81.40,145,152.5,157.5,157.5,95,-97.5,-97.5,95.0,175,182.5,187.5,187.5,440
1,Dan Holly,M,SBD,MR-O,93,Raw,1988,,NJ,89.80,267.5,277.5,285,285.0,145,152.5,,152.5,285,297.5,-305,297.5,735
2,Adam Cavallaro,M,SBD,MR-O,93,Raw,1997,,NJ,87.90,215,232.5,,232.5,145,160,165,165.0,280,287.5,-290,287.5,685
3,Joseph Milano,M,SBD,MR-O,93,Raw,1990,TNT Strength and Conditioning,NJ,89.10,210,220,232.5,232.5,135,142.5,150,150.0,262.5,275,290,290.0,672.5
4,Nelson Wong,M,SBD,MR-O,93,Raw,1992,,NJ,91.70,207.5,222.5,232.5,232.5,132.5,140,145,145.0,230,245,-257.5,245.0,622.5
5,Ryan Kuruc,M,SBD,MR-O,93,Raw,1985,Iron Arena,NJ,88.60,207.5,220,-230,220.0,152.5,160,-165,160.0,227.5,235,-240,235.0,615
6,Darren Nemow,M,SBD,MR-O,93,Raw,1973,,NJ,91.10,207.5,227.5,-240,227.5,132.5,140,-142.5,140.0,225,240,-245,240.0,607.5
7,Jason Matta,M,SBD,MR-O,93,Raw,1977,,NJ,91.30,202.5,-217.5,-217.5,202.5,152.5,-162.5,-162.5,152.5,235,242.5,252.5,252.5,607.5
8,Erik Smithman,M,SBD,MR-O,93,Raw,1989,TNT Strength and Conditioning,NJ,90.40,205,215,-232.5,215.0,152.5,162.5,-172.5,162.5,195,207.5,217.5,217.5,595
9,Michael Albigese,M,SBD,MR-O,93,Raw,1989,,NJ,91.20,192.5,202.5,,202.5,150,-160,160,160.0,207.5,210,-215,210.0,572.5
10,Josh Matus,M,SBD,MR-O,93,Raw,1993,,NJ,90.20,165,175,185,185.0,-130,130,-142.5,130.0,220,235,-245,235.0,550
11,Brian Gartner,M,SBD,MR-O,93,Raw,1983,,NJ,88.80,162.5,-175,175,175.0,125,135,-140,135.0,182.5,200,215,215.0,525
12,Bryan Fitzsimmons,M,SBD,MR-O,93,Raw,1992,,NJ,90.60,162.5,167.5,175,175.0,117.5,122.5,127.5,127.5,180,185,192.5,192.5,495
13,Matthew Murtagh,M,SBD,MR-O,93,Raw,1993,,NJ,85.50,152.5,162.5,170,170.0,115,120,122.5,122.5,167.5,177.5,190,190.0,482.5
14,Timothy Ambat,M,SBD,MR-O,93,Raw,1992,,NJ,87.00,160,170,175,175.0,82.5,90,95,95.0,172.5,185,192.5,192.5,462.5
15,Richard Carrano,M,SBD,MR-O,93,Raw,1993,,NJ,88.80,-125,125,132.5,132.5,77.5,82.5,-92.5,82.5,167.5,177.5,192.5,192.5,407.5
1,Lawrence Melillo,M,SBD,MR-O,105,Raw,1993,,NJ,99.00,232.5,242.5,250,250.0,167.5,175,180,180.0,252.5,262.5,267.5,267.5,697.5
2,Vinny Gencarelli,M,SBD,MR-O,105,Raw,1991,,NJ,104.50,225,232.5,-235,232.5,150,157.5,162.5,162.5,227.5,237.5,240,240.0,635
3,Addison Wade,M,SBD,MR-O,105,Raw,1990,,NJ,103.40,182.5,195,202.5,202.5,132.5,140,145,145.0,242.5,260,275,275.0,622.5
4,Jordan Laboy,M,SBD,MR-O,105,Raw,1991,,NJ,103.40,205,-220,-220,205.0,170,-182.5,-182.5,170.0,225,237.5,-255,237.5,612.5
5,Alexander Torrisi,M,SBD,MR-O,105,Raw,1993,,NJ,95.20,-190,195,210,210.0,140,147.5,152.5,152.5,207.5,222.5,235,235.0,597.5
6,Michael Adelante,M,SBD,MR-O,105,Raw,1984,Adelante Barbell Club,NJ,98.70,185,197.5,205,205.0,132.5,137.5,140,140.0,-225,225,227.5,227.5,572.5
7,Alan Vallee,M,SBD,MR-O,105,Raw,1990,,NJ,101.70,192.5,-207.5,212.5,212.5,120,-127.5,-127.5,120.0,220,230,-240,230.0,562.5
8,Mike Szczesniak,M,SBD,MR-O,105,Raw,1990,,NJ,103.30,182.5,192.5,-200,192.5,127.5,132.5,137.5,137.5,207.5,217.5,227.5,227.5,557.5
9,David Watson #2,M,SBD,MR-O,105,Raw,1971,,NJ,100.80,157.5,167.5,172.5,172.5,127.5,132.5,-137.5,132.5,205,210,-212.5,210.0,515
10,Brian Martinez,M,SBD,MR-O,105,Raw,1987,,NJ,98.80,147.5,162.5,170,170.0,110,115,125,125.0,192.5,-210,-210,192.5,487.5
11,Tony Kintos,M,SBD,MR-O,105,Raw,1975,,NJ,95.80,62.5,-127.5,-127.5,62.5,107.5,115,120,120.0,195,205,212.5,212.5,395
1,Taylor Fox,M,SBD,MR-O,120,Raw,1991,,NJ,118.30,265,-280,-280,265.0,155,165,-170,165.0,-290,290,-305,290.0,720
2,Michael Evans,M,SBD,MR-O,120,Raw,1998,,NJ,117.50,230,245,252.5,252.5,137.5,145,150,150.0,230,242.5,250,250.0,652.5
3,Daniel Toomey,M,SBD,MR-O,120,Raw,1988,TNT Strength and Conditioning,NJ,109.90,207.5,217.5,-230,217.5,-172.5,172.5,-182.5,172.5,227.5,240,-252.5,240.0,630
4,Juan Huertas,M,SBD,MR-O,120,Raw,1989,,NJ,107.80,205,215,217.5,217.5,127.5,135,140,140.0,220,230,237.5,237.5,595
5,David Rodriguez,M,SBD,MR-O,120,Raw,1985,,NJ,117.50,190,200,205,205.0,135,140,147.5,147.5,210,220,-225,220.0,572.5
6,Nathan Wolf,M,SBD,MR-O,120,Raw,1992,,NJ,117.10,107.5,117.5,132.5,132.5,87.5,97.5,-102.5,97.5,137.5,147.5,157.5,157.5,387.5
1,Robert Parisi,M,SBD,MR-O,120+,Raw,1994,,NJ,132.60,320,345,365,365.0,160,172.5,-182.5,172.5,265,282.5,-295,282.5,820
2,Marc Tortal,M,SBD,MR-O,120+,Raw,1992,,NJ,125.40,247.5,262.5,272.5,272.5,155,165,170,170.0,255,267.5,272.5,272.5,715
3,Michael Andrieu,M,SBD,MR-O,120+,Raw,1981,,NJ,131.70,207.5,217.5,227.5,227.5,140,147.5,152.5,152.5,255,265,272.5,272.5,652.5
4,Mauricio Galvan,M,SBD,MR-O,120+,Raw,1994,,NJ,121.00,182.5,-190,-190,182.5,140,145,147.5,147.5,205,215,227.5,227.5,557.5
5,Corey Kennedy,M,SBD,MR-O,120+,Raw,1987,Iron Arena,NJ,123.60,175,185,192.5,192.5,120,125,130,130.0,210,220,-230,220.0,542.5
6,Tim Jones,M,SBD,MR-O,120+,Raw,1987,,NJ,162.00,145,155,165,165.0,105,115,120,120.0,190,-210,-210,190.0,475
DQ,Tobi Alder,M,SBD,MR-O,120+,Raw,1992,,NJ,124.00,-242.5,-257.5,-257.5,,-162.5,-162.5,-162.5,,272.5,297.5,-302.5,297.5,
1,David Peterson,M,SBD,MR-T1,59,Raw,2003,,NJ,58.20,92.5,100,-107.5,100.0,-60,60,-75,60.0,-120,125,-140,125.0,285
1,Rocco Julian,M,SBD,MR-T1,66,Raw,2002,,NJ,64.40,97.5,100,105,105.0,85,92.5,-100,92.5,115,120,125,125.0,322.5
2,Nikolas Rasmussen,M,SBD,MR-T1,66,Raw,2004,TNT Strength and Conditioning,NJ,61.60,85,90,95,95.0,52.5,57.5,62.5,62.5,130,137.5,150,150.0,307.5
1,Gordon Wu,M,SBD,MR-T1,83,Raw,2002,,NJ,81.90,145,150,160,160.0,70,75,-82.5,75.0,155,162.5,-172.5,162.5,397.5
1,Noah Goldfischer,M,SBD,MR-T2,66,Raw,2002,,NJ,61.70,115,125,-132.5,125.0,82.5,90,95,95.0,140,150,157.5,157.5,377.5
1,Steve Guandique,M,SBD,MR-T2,83,Raw,2000,Iron Arena,NJ,81.80,185,195,205,205.0,117.5,122.5,127.5,127.5,202.5,212.5,217.5,217.5,550
2,Aaron Osborn,M,SBD,MR-T2,83,Raw,2002,TNT Strength and Conditioning,NJ,76.10,112.5,117.5,125,125.0,-67.5,67.5,72.5,72.5,150,160,-167.5,160.0,357.5
DQ,Maxwell Bidic,M,SBD,MR-T2,83,Raw,2001,,NJ,78.60,-162.5,-162.5,-162.5,,112.5,-120,-125,112.5,197.5,217.5,-222.5,217.5,
DQ,Zackary Borawski,M,SBD,MR-T2,83,Raw,2002,,NJ,79.00,-130,137.5,142.5,142.5,-92.5,-102.5,-102.5,,142.5,-150,155,155.0,
1,Jorge Ramirez-Garcia,M,SBD,MR-T3,66,Raw,1999,,NJ,64.70,162.5,165,-167.5,165.0,97.5,102.5,105,105.0,220,232.5,-241,232.5,502.5
1,Joseph Casamassima,M,SBD,MR-T3,74,Raw,1999,,NJ,72.70,165,175,185,185.0,120,125,127.5,127.5,187.5,-197.5,197.5,197.5,510
1,Devraj Roy,M,SBD,MR-T3,83,Raw,1998,,NJ,82.40,-207.5,-215,215,215.0,145,-150,150,150.0,235,245,-252.5,245.0,610
2,Christian Sasso,M,SBD,MR-T3,83,Raw,1998,,NJ,80.20,135,-147.5,155,155.0,-100,110,-120,110.0,160,180,-190,180.0,445
1,Troy Peressini,M,SBD,MR-T3,93,Raw,1998,,NJ,86.90,175,185,192.5,192.5,115,122.5,125,125.0,242.5,252.5,255,255.0,572.5
2,Ben Cohen,M,SBD,MR-T3,93,Raw,1999,,NJ,89.70,170,180,187.5,187.5,102.5,107.5,110,110.0,205,217.5,227.5,227.5,525
1,Michael Evans,M,SBD,MR-T3,120,Raw,1998,Adelante Barbell Club,NJ,117.50,230,245,252.5,252.5,137.5,145,150,150.0,230,242.5,250,250.0,652.5
2,Domer Gutiza,M,SBD,MR-T3,120,Raw,1998,,NJ,107.70,180,192.5,200,200.0,95,102.5,107.5,107.5,200,210,215,215.0,522.5
1,Nathan Alexander #2,M,SBD,MR-Y3,48,Raw,2005,TNT Strength and Conditioning,NJ,45.60,65,70,75,75.0,37.5,42.5,47.5,47.5,87.5,92.5,97.5,97.5,220
1,Robert Coberg,M,BD,M-M1,105,Single-ply,1970,,NJ,103.00,,,,,125,165,167.5,167.5,217.5,-222.5,-222.5,217.5,385
1,Steve Freides,M,BD,MR-M3,66,Raw,1955,,NJ,65.30,,,,,60,70,80,80.0,147.5,162.5,,162.5,242.5
