Division,WeightClassKg,Place,Name,Team,BodyweightKg,Best3SquatKg,Best3BenchKg,Best3DeadliftKg,TotalKg,Equipment,Event,Sex
Boys,51.71,1,Javan Lopez,Lake Worth,47.08,83.91,56.7,81.65,222.26,Single-ply,SBD,M
Boys,51.71,2,Colten Upchurch,Burkburnett,44.27,61.23,61.23,63.5,185.97,Single-ply,SBD,M
Boys,55.79,1,Nathan Mock,Perrin-Whitt,54.34,120.2,65.77,136.08,322.05,Single-ply,SBD,M
Boys,55.79,2,Martin Palomino,Lake Worth,54.61,122.47,65.77,131.54,319.78,Single-ply,SBD,M
Boys,55.79,3,Angel Rico,Kennedale,53.34,90.72,63.5,122.47,276.69,Single-ply,SBD,M
Boys,55.79,4,Joey Crawford,Bowie,54.34,104.33,54.43,108.86,267.62,Single-ply,SBD,M
Boys,59.87,1,Juan Mares,Bowie,56.88,145.15,88.45,133.81,367.41,Single-ply,SBD,M
Boys,59.87,2,Trayce Barber,Boyd,59.15,129.27,86.18,136.08,351.53,Single-ply,SBD,M
Boys,59.87,3,Jay Rogers,Bowie,59.78,124.74,61.23,145.15,331.12,Single-ply,SBD,M
Boys,59.87,4,Lorenzo Novoa,Lake Worth,57.7,113.4,68.04,136.08,317.51,Single-ply,SBD,M
Boys,59.87,5,Jose de la Cerda,Bridgeport,57.52,106.59,61.23,129.27,297.1,Single-ply,SBD,M
Boys,59.87,6,Christian Gauthier,Burkburnett,57.97,92.99,74.84,120.2,288.03,Single-ply,SBD,M
Boys,67.13,1,John Mitchell,Kennedale,66.04,165.56,95.25,165.56,426.38,Single-ply,SBD,M
Boys,67.13,2,Caleb Rodriguez,Boyd,63.78,156.49,86.18,158.76,401.43,Single-ply,SBD,M
Boys,67.13,3,Chance Tomlinson,Bowie,64.68,138.35,90.72,172.37,401.43,Single-ply,SBD,M
Boys,67.13,4,Louis Flores,Kennedale,64.23,131.54,81.65,163.29,376.48,Single-ply,SBD,M
Boys,67.13,5,Isaiah Rodriguez,Bridgeport,64.86,142.88,72.57,145.15,360.61,Single-ply,SBD,M
Boys,67.13,6,Avery Carrell,Castleberry,65.05,120.2,83.91,147.42,351.53,Single-ply,SBD,M
Boys,67.13,7,Brady Adair,Perrin-Whitt,65.59,111.13,74.84,154.22,340.19,Single-ply,SBD,M
Boys,67.13,8,Ronnie Gentry,Krum,62.51,127.01,65.77,142.88,335.66,Single-ply,SBD,M
Boys,67.13,9,Lee Crohan,Boyd,63.78,113.4,65.77,124.74,303.91,Single-ply,SBD,M
Boys,67.13,10,Justin Jackson,Bowie,61.69,97.52,52.16,113.4,263.08,Single-ply,SBD,M
Boys,67.13,11,Yancey Southard,Perrin-Whitt,64.68,92.99,54.43,115.67,263.08,Single-ply,SBD,M
Boys,67.13,DQ,Johnny Casillas,Lake Worth,60.24,161.03,,,,Single-ply,SBD,M
Boys,67.13,DQ,Caleb McKenzie,Castleberry,61.23,99.79,,,,Single-ply,SBD,M
Boys,74.84,1,Dillon McAlister,Bridgeport,69.31,188.24,104.33,226.8,519.36,Single-ply,SBD,M
Boys,74.84,2,Justin Adams,Krum,70.13,145.15,79.38,192.78,417.3,Single-ply,SBD,M
Boys,74.84,3,Chandler Hefley,Bowie,68.67,163.29,81.65,167.83,412.77,Single-ply,SBD,M
Boys,74.84,4,Regi Lane,Bridgeport,70.31,151.95,77.11,163.29,392.36,Single-ply,SBD,M
Boys,74.84,5,William Kurnes,Chico,73.75,147.42,74.84,145.15,367.41,Single-ply,SBD,M
Boys,74.84,6,Matthew Oldham,Boyd,74.12,129.27,72.57,147.42,349.27,Single-ply,SBD,M
Boys,74.84,7,Lane Pearson,Krum,73.75,129.27,70.31,147.42,347,Single-ply,SBD,M
Boys,74.84,8,Jesus Fierro,Lake Worth,69.76,111.13,61.23,131.54,303.91,Single-ply,SBD,M
Boys,74.84,9,Moore Hank,Perrin-Whitt,71.4,102.06,58.97,124.74,285.76,Single-ply,SBD,M
Boys,74.84,10,Josh Berman,Kennedale,68.95,83.91,61.23,124.74,269.89,Single-ply,SBD,M
Boys,74.84,DQ,Kalan Johnson,Chico,71.94,167.83,,,,Single-ply,SBD,M
Boys,82.1,1,Griffin Balthrop,Castleberry,81.92,190.51,122.47,219.99,532.97,Single-ply,SBD,M
Boys,82.1,2,Dylan Grider,Burkburnett,80.29,156.49,117.93,183.7,458.13,Single-ply,SBD,M
Boys,82.1,3,Victor Hernandez,Bridgeport,80.1,163.29,104.33,163.29,430.91,Single-ply,SBD,M
Boys,82.1,4,Donny Neal,Chico,79.56,142.88,102.06,183.7,428.64,Single-ply,SBD,M
Boys,82.1,5,Mario Cruz,Castleberry,81.92,151.95,108.86,154.22,415.04,Single-ply,SBD,M
Boys,82.1,6,Zackary Otto,Bowie,78.47,158.76,86.18,158.76,403.7,Single-ply,SBD,M
Boys,82.1,7,Matthew Ortiz,Castleberry,78.02,154.22,88.45,158.76,401.43,Single-ply,SBD,M
Boys,82.1,8,Haeden Knight,Krum,75.93,163.29,74.84,158.76,396.89,Single-ply,SBD,M
Boys,82.1,9,Tarius Hare,Krum,78.74,149.69,81.65,158.76,390.09,Single-ply,SBD,M
Boys,82.1,10,Austin Lamasters,Perrin-Whitt,79.2,102.06,79.38,140.61,322.05,Single-ply,SBD,M
Boys,82.1,11,Mika Wallner,Perrin-Whitt,76.2,111.13,68.04,136.08,315.25,Single-ply,SBD,M
Boys,82.1,12,Jacob Konermann,Burkburnett,76.02,106.59,63.5,115.67,285.76,Single-ply,SBD,M
Boys,89.81,1,Abel Barboza,Castleberry,86.91,215.46,124.74,231.33,571.53,Single-ply,SBD,M
Boys,89.81,2,Bret Davis,Bowie,87.27,192.78,142.88,188.24,523.9,Single-ply,SBD,M
Boys,89.81,3,Brandon Murphy,Whitesboro,85.55,219.99,104.33,197.31,521.63,Single-ply,SBD,M
Boys,89.81,4,James Baker,Whitesboro,87.63,181.44,113.4,176.9,471.74,Single-ply,SBD,M
Boys,89.81,5,Jacob Slimp,Bridgeport,88.81,163.29,108.86,185.97,458.13,Single-ply,SBD,M
Boys,89.81,6,Ethan Ford,Krum,84.37,158.76,83.91,183.7,426.38,Single-ply,SBD,M
Boys,89.81,7,Juan Mancilla,Nocona,87.36,142.88,86.18,188.24,417.3,Single-ply,SBD,M
Boys,89.81,8,Timothy Landers,Castleberry,89.81,142.88,83.91,183.7,410.5,Single-ply,SBD,M
Boys,89.81,9,Brandon Kiernan,Kennedale,88,111.13,108.86,147.42,367.41,Single-ply,SBD,M
Boys,89.81,10,Desmond Mendoza,Kennedale,84.37,127.01,86.18,145.15,358.34,Single-ply,SBD,M
Boys,89.81,11,Jesse Diaz,Kennedale,89.45,131.54,83.91,142.88,358.34,Single-ply,SBD,M
Boys,89.81,12,Tanner Young,Whitesboro,86.91,129.27,92.99,120.2,342.46,Single-ply,SBD,M
Boys,89.81,13,Cooper Duke,Burkburnett,87.54,117.93,61.23,158.76,337.93,Single-ply,SBD,M
Boys,89.81,14,Jason Daughtry,Nocona,84.91,113.4,70.31,145.15,328.85,Single-ply,SBD,M
Boys,89.81,15,Dylan Miranda,Kennedale,86.36,122.47,68.04,136.08,326.59,Single-ply,SBD,M
Boys,89.81,16,Jaylynn Hanlin,Krum,89.63,124.74,65.77,136.08,326.59,Single-ply,SBD,M
Boys,89.81,17,Edgar Chairez,Castleberry,87,92.99,77.11,133.81,303.91,Single-ply,SBD,M
Boys,89.81,DQ,Danny Wood,Burkburnett,89.36,,,,,Single-ply,SBD,M
Boys,99.79,1,Chance Pierce,Bridgeport,98.34,201.85,136.08,249.48,587.4,Single-ply,SBD,M
Boys,99.79,2,Tristan Dennison,Bowie,93.89,213.19,117.93,215.46,546.58,Single-ply,SBD,M
Boys,99.79,3,Mason Chapa,Castleberry,95.89,185.97,108.86,210.92,505.76,Single-ply,SBD,M
Boys,99.79,4,Jason Escobedo,Lake Worth,91.44,188.24,122.47,185.97,496.68,Single-ply,SBD,M
Boys,99.79,5,Tristan Barbare,Perrin-Whitt,90.72,179.17,97.52,185.97,462.66,Single-ply,SBD,M
Boys,99.79,6,Dakota Partin,Boyd,90.81,176.9,106.59,176.9,460.4,Single-ply,SBD,M
Boys,99.79,7,Lucas Ramsey,Perrin-Whitt,93.17,192.78,102.06,151.95,446.79,Single-ply,SBD,M
Boys,99.79,8,Alex Silva,Boyd,98.97,170.1,92.99,172.37,435.45,Single-ply,SBD,M
Boys,99.79,9,Alex Winters,Bridgeport,95.53,165.56,74.84,181.44,421.84,Single-ply,SBD,M
Boys,99.79,DQ,Dakota Armstrong,Perrin-Whitt,96.52,127.01,,158.76,,Single-ply,SBD,M
Boys,99.79,DQ,Kylar Pendergraft,Nocona,91.35,188.24,,167.83,,Single-ply,SBD,M
Boys,109.77,1,Cody Armstrong,Chico,100.7,199.58,99.79,195.04,494.42,Single-ply,SBD,M
Boys,109.77,2,Haden Snodgrass,Bridgeport,107.68,163.29,122.47,195.04,480.81,Single-ply,SBD,M
Boys,109.77,3,Evan Shipley,Krum,101.88,181.44,88.45,190.51,460.4,Single-ply,SBD,M
Boys,109.77,4,Killian Carper,Kennedale,105.14,140.61,97.52,172.37,410.5,Single-ply,SBD,M
Boys,109.77,5,Tim Sombathy,Alvord,105.32,120.2,70.31,129.27,319.78,Single-ply,SBD,M
Boys,109.77,6,Deuce Glasker,Nocona,106.05,108.86,74.84,108.86,292.57,Single-ply,SBD,M
Boys,109.77,7,Cody Snead,Alvord,100.79,95.25,61.23,117.93,274.42,Single-ply,SBD,M
Boys,124.74,1,Saul Landaverde,Bowie,121.93,281.23,154.22,233.6,669.05,Single-ply,SBD,M
Boys,124.74,2,Shawn Wheat,Bridgeport,120.2,226.8,154.22,215.46,596.47,Single-ply,SBD,M
Boys,124.74,3,Jacob Boswell,Burkburnett,117.03,235.87,131.54,226.8,594.21,Single-ply,SBD,M
Boys,124.74,4,Frederico Arvizu,Castleberry,111.13,226.8,127.01,226.8,580.6,Single-ply,SBD,M
Boys,124.74,5,Russell Carey,Whitesboro,119.57,226.8,131.54,219.99,578.33,Single-ply,SBD,M
Boys,124.74,6,Blake Martin,Alvord,114.85,249.48,104.33,199.58,553.38,Single-ply,SBD,M
Boys,124.74,7,Josh King #1,Lake Worth,123.92,213.19,131.54,204.12,548.85,Single-ply,SBD,M
Boys,124.74,8,Eric Stonechek,Bridgeport,122.74,199.58,120.2,213.19,532.97,Single-ply,SBD,M
Boys,124.74,9,JD Brown,Chico,116.94,199.58,127.01,197.31,523.9,Single-ply,SBD,M
Boys,124.74,10,Alexis Jimenez,Lake Worth,115.67,181.44,124.74,183.7,489.88,Single-ply,SBD,M
Boys,124.74,11,Chris Serwanga,Kennedale,116.94,183.7,102.06,156.49,442.25,Single-ply,SBD,M
Boys,124.74,12,Everett Gunnoe,Krum,122.92,165.56,102.06,165.56,433.18,Single-ply,SBD,M
Boys,124.74+,1,Jared Roberts,Bowie,143.79,242.67,145.15,226.8,614.62,Single-ply,SBD,M
Boys,124.74+,2,Caleb Jennings,Bridgeport,144.33,226.8,147.42,215.46,589.67,Single-ply,SBD,M
Boys,124.74+,3,Tyler Yzaguirre,Alvord,130.54,226.8,115.67,163.29,505.76,Single-ply,SBD,M
Boys,124.74+,4,Zane Howard,Krum,127.28,197.31,111.13,174.63,483.08,Single-ply,SBD,M
