Place,Sex,Name,CyrillicName,BodyweightKg,Bench1Kg,Bench2Kg,Bench3Kg,Best3BenchKg,Bench4Kg,TotalKg,WeightClassKg,Event,Equipment,Tested,Deadlift1Kg,Deadlift2Kg,Deadlift3Kg,Best3DeadliftKg,Deadlift4Kg,Division,Age,BirthDate
1,F,Kristina Zhukova,Кристина Жукова,47.7,35,-40,-40,35,,35,48,B,Raw,No,,,,,,Pro Girls,16,2001-07-06
1,M,Dmitriy Belkin,Дмитрий Белкин,52,50,55,-60,55,,55,52,B,Raw,No,,,,,,Pro Teen,16,2001-07-06
1,M,Sergey Stepannikov,Сергей Степанников,70.55,90,-95,-95,90,,90,75,B,Raw,No,,,,,,Pro Teen,16,2002-02-03
DQ,M,Ivan Samoylenko,Иван Самойленко,69.45,-95,-95,-95,,,,75,B,Raw,No,,,,,,Pro Teen 17-19,17,2001-04-22
1,M,Nikolay Kucherov,Николай Кучеров,74.95,80,92.5,-100,92.5,,92.5,75,B,Raw,No,,,,,,Pro Juniors,22,1996-04-18
2,M,Vadim Dolgopodov,Вадим Долгоподов,69.3,-90,90,-95,90,,90,75,B,Raw,No,,,,,,Pro Juniors,22,1995-07-16
1,M,Nikolay Kryukov,Николай Крюков,72.45,135,-140,140,140,,140,75,B,Raw,No,,,,,,Pro Open,26,1991-05-20
2,M,Ivan Cherednichenko,Иван Чередниченко,70.3,120,-135,-135,120,,120,75,B,Raw,No,,,,,,Pro Open,22,1995-09-11
DQ,M,Maksim Glukhov,Максим Глухов,79,-110,-110,-110,,,,82.5,B,Raw,No,,,,,,Pro Teen 17-19,17,2000-10-10
1,M,Dmitriy Skurikhin,Дмитрий Скурихин,80.5,115,-120,-120,115,,115,82.5,B,Raw,No,,,,,,Pro Juniors,22,1995-10-13
1,M,Aleksandr Serafimov,Александр Серафимов,79.55,150,160,-170,160,,160,82.5,B,Raw,No,,,,,,Pro Open,39,1978-07-01
2,M,Yuriy Rogachev,Юрий Рогачев,80,140,150,155,155,,155,82.5,B,Raw,No,,,,,,Pro Open,28,1989-09-07
1,M,Denis Lutsenko,Денис Луценко,86.6,115,120,125,125,,125,90,B,Raw,No,,,,,,Pro Teen 17-19,18,2000-01-29
2,M,Kirill Kirillov,Кирилл Кириллов,85.3,-117.5,117.5,120,120,,120,90,B,Raw,No,,,,,,Pro Teen 17-19,19,1998-09-24
1,M,Andrey Smirnov,Андрей Смирнов,89.95,120,130,-137,130,,130,90,B,Raw,No,,,,,,Pro Juniors,23,1995-01-31
1,M,Nikita Dolgachev,Никита Долгачев,86.55,140,150,155,155,,155,90,B,Raw,No,,,,,,Pro Open,21,1997-01-27
DQ,M,Sergey Dorofeev,Сергей Дорофеев,88.85,-100,-100,-100,,,,90,B,Raw,No,,,,,,Pro Open,26,1992-01-12
1,M,Yuriy Sunyaev,Юрий Суняев,89.1,-105,105,107.5,107.5,,107.5,90,B,Raw,No,,,,,,Pro Masters 50-59,53,1965-04-06
1,M,Ivan Fateev,Иван Фатеев,98.15,-140,-140,140,140,,140,100,B,Raw,No,,,,,,Pro Open,38,1979-08-01
2,M,Artem Yunakov,Артем Юнаков,91.85,130,135,-140,135,,135,100,B,Raw,No,,,,,,Pro Open,29,1988-10-16
1,M,Maksim Sleptsov,Максим Слепцов,97.2,165,175,-180,175,,175,100,B,Raw,No,,,,,,Pro Masters 40-49,40,1977-06-18
1,M,Gennadiy Reznik,Геннадий Резник,95.85,105,110,112.5,112.5,,112.5,100,B,Raw,No,,,,,,Pro Masters 50-59,54,1963-09-05
1,M,Yuriy Kharitonov,Юрий Харитонов,108.35,160,170,175,175,,175,110,B,Raw,No,,,,,,Pro Open,36,1982-03-08
1,M,Konstantin Lozychekno,Константин Лозычекно,101.25,140,150,155,155,,155,110,B,Raw,No,,,,,,Pro Masters 40-49,46,1972-01-11
1,M,Dmitriy Trishin,Дмитрий Тришин,122.4,100,105,-107.5,105,,105,125,B,Raw,No,,,,,,Pro Teen,15,2002-07-23
1,F,Natalya Cherednichenko,Наталья Чередниченко,42.6,,,,,,75,44,D,Raw,No,67.5,72.5,75,75,,Pro Open,27,1991-05-07
1,F,Kristina Zhukova,Кристина Жукова,47.7,,,,,,70,48,D,Raw,No,70,-75,-77.5,70,,Pro Girls 14-16,16,2001-07-06
1,M,Rodion Rizaev,Родион Ризаев,32.3,,,,,,70,52,D,Raw,No,50,60,70,70,,Pro Teen 14-16,11,2007-01-16
1,M,Ivan Samoylenko,Иван Самойленко,69.45,,,,,,140,75,D,Raw,No,-140,140,-155,140,,Pro Teen 17-19,17,2001-04-22
1,M,Nikolay Kucherov,Николай Кучеров,74.95,,,,,,150,75,D,Raw,No,110,135,150,150,,Pro Juniors,22,1996-04-18
1,M,Ivan Cherednichenko,Иван Чередниченко,70.3,,,,,,210,75,D,Raw,No,-190,190,210,210,,Pro Open,22,1995-09-11
2,M,Ivan Rokotyanskiy,Иван Рокотянский,74,,,,,,210,75,D,Raw,No,190,200,210,210,,Pro Open,18,2000-01-25
1,M,Maksim Glukhov,Максим Глухов,79,,,,,,150,82.5,D,Raw,No,135,140,150,150,,Pro Teen 17-19,17,2000-10-10
1,M,Andrey Nichiporuk,Андрей Ничипорук,78.7,,,,,,227.5,82.5,D,Raw,No,210,227.5,-240,227.5,,Pro Open,27,1991-04-11
1,M,Nikita Dolgachev,Никита Долгачев,86.55,,,,,,210,90,D,Raw,No,180,195,210,210,,Pro Juniors,21,1997-01-27
2,M,Andrey Smirnov,Андрей Смирнов,89.95,,,,,,210,90,D,Raw,No,210,-220,-220,210,,Pro Juniors,21,1997-01-27
1,M,Aleksey Blagodyrev,Алексей Благодырев,89.9,,,,,,260,90,D,Raw,No,230,250,260,260,,Pro Open,26,1991-07-03
1,M,Artem Yunakov,Артем Юнаков,91.85,,,,,,180,100,D,Raw,No,170,180,,180,,Pro Open,29,1988-10-16
