Name,Age,BodyweightKg,WeightClassKg,Tested,Sex,Division,Equipment,Best3SquatKg,Best3BenchKg,Best3DeadliftKg,TotalKg,Event,Place
Abi Stump,27,69.85,75,Yes,F,F_OR_AAPF,Raw,99.79,72.57,127.01,299.37,SBD,2
Adam Zevchik,21,74.48,75,No,M,M_JM_APF,Multi-ply,308.44,167.83,249.48,725.75,SBD,1
Adriene Eberwine,30,59.87,60,No,F,F_OR_APF,Raw,,,215.46,215.46,D,1
Amber Crabtree,24,51.71,52,No,F,F_OR_APF,Raw,108.86,56.7,124.74,290.3,SBD,1
Amber Crabtree,24,51.71,52,Yes,F,F_OR_AAPF,Raw,108.86,56.7,124.74,290.3,SBD,1
Ashley Cloern,31,66.68,67.5,No,F,F_OR_APF,Raw,74.84,40.82,86.18,201.85,SBD,2
Aubrey Lyons,20,65.5,67.5,No,F,F_OR_APF,Raw,104.33,61.23,161.03,326.59,SBD,1
Aubrey Lyons,20,65.5,67.5,No,F,F_JR_APF,Raw,104.33,61.23,161.03,326.59,SBD,1
Ben Friel,16,66.22,67.5,No,M,M_TS_2_APF,Single-ply,,92.99,,92.99,B,1
Ben Trittle,31,106.96,110,No,M,M_OR_APF,Raw,229.06,158.76,249.48,637.3,SBD,1
Brandon Clark,,123.83,125,No,M,M_OM_APF,Multi-ply,,,,,B,DQ
Brandon Clark,,123.83,125,No,M,M_OM_APF,Multi-ply,,,317.51,317.51,D,1
Butch Zemartis,52,92.71,100,No,M,M_MS_3_APF,Single-ply,,,,,B,DQ
Christian Maier,44,81.83,82.5,No,M,M_MR_1_APF,Raw,151.95,113.4,210.92,476.27,SBD,1
Colt Bush,19,74.39,75,Yes,M,M_TR_3_AAPF,Raw,102.06,68.04,156.49,326.59,SBD,1
Colten Danison,16,89.81,90,No,M,M_TR_2_APF,Raw,190.51,113.4,215.46,519.36,SBD,1
Devee Stresthadatta,31,70.76,75,No,F,F_OR_APF,Raw,113.4,61.23,142.88,317.51,SBD,1
Duane Fryberger,45,109.32,110,Yes,M,M_MR_2_AAPF,Raw,,,229.06,229.06,D,1
Gage Bobo,15,74.39,75,Yes,M,M_TR_1_AAPF,Raw,113.4,65.77,147.42,326.59,SBD,1
Galen Scott,54,108.41,110,No,M,M_MM_4_APF,Multi-ply,,238.14,,238.14,B,1
Gary Benford,61,89.58,90,No,M,M_MM_5_APF,Multi-ply,,197.31,,197.31,B,1
Gary Board,46,120.2,125,No,M,M_MRC_2_APF,Wraps,226.8,127.01,213.19,566.99,SBD,1
Gary Huff,44,137.89,140,Yes,M,M_MR_1_AAPF,Raw,,165.56,,165.56,B,1
Gary Zeolla,55,51.98,52,Yes,M,M_MCR_4_AAPF,Wraps,145.15,81.65,174.63,401.43,SBD,1
Harold Mobley,50,118.84,125,No,M,M_MR_3_APF,Raw,235.87,174.63,249.48,659.98,SBD,1
Holly Beidelschies,,74.39,75,No,F,F_OM_APF,Multi-ply,27.22,124.74,181.44,333.39,SBD,1
Holly Gardner,20,82.1,82.5,Yes,F,F_OM_AAPF,Multi-ply,190.51,90.72,,,SBD,DQ
Jim Wetenhall,,124.28,125,No,M,M_MM_6_APF,Multi-ply,,158.76,,158.76,B,1
Joel Terry,28,88.09,90,No,M,M_OM_APF,Multi-ply,,,,,B,DQ
John Lindley,45,108.86,110,No,M,M_MM_2_APF,Multi-ply,,233.6,,233.6,B,1
Jon Armistead,20,131.54,140,No,M,M_OM_APF,Multi-ply,426.38,238.14,362.87,1027.39,SBD,1
Jonah Albert,20,82.28,82.5,No,M,M_OS_APF,Single-ply,204.12,167.83,242.67,614.62,SBD,1
Josh Hachat,37,107.95,110,No,M,M_OCR_APF,Wraps,215.46,142.88,251.74,610.08,SBD,1
Kathy Wetenhall,,81.65,82.5,No,F,F_MR_5_APF,Raw,,70.31,,70.31,B,1
Kathy Wetenhall,,81.65,82.5,No,F,F_MM_5_APF,Multi-ply,,90.72,,90.72,B,1
Kim Higgins,37,58.51,60,No,F,F_OR_APF,Raw,65.77,52.16,115.67,233.6,SBD,1
Kris Stanton,22,88.63,90,Yes,M,M_JM_AAPF,Multi-ply,238.14,161.03,229.06,628.23,SBD,1
Kristen Samson,26,78.02,82.5,No,F,F_OR_APF,Raw,156.49,88.45,170.1,415.04,SBD,1
Kristin Tom-Savage,31,74.75,75,Yes,F,F_OR_AAPF,Raw,136.08,86.18,131.54,353.8,SBD,1
Kylie Redman,18,69.85,75,Yes,F,F_TR_3_AAPF,Raw,,74.84,,74.84,B,1
Lily Starobin,28,64.95,67.5,No,F,F_OS_APF,Single-ply,138.35,104.33,165.56,408.23,SBD,1
Mike Pfabe,38,132.45,140,No,M,M_SCR_APF,Wraps,272.16,208.65,249.48,730.28,SBD,1
Nicholas Angelini,31,97.98,100,No,M,M_OR_APF,Raw,,222.26,,222.26,B,1
Nick Sabatino,48,141.52,140+,Yes,M,M_MR_2_AAPF,Raw,,181.44,,181.44,B,1
Patrick Schottenheimer,44,119.75,125,No,M,M_MCR_1_APF,Wraps,226.8,167.83,272.16,666.78,SBD,1
Pete Purdy,35,89.81,90,No,M,M_OM_APF,Multi-ply,201.85,120.2,192.78,514.83,SBD,1
Ridge Hykes,20,95.71,100,No,M,M_JR_APF,Raw,,117.93,,117.93,B,1
Ridge Hykes,20,95.71,100,No,M,M_JR_APF,Raw,,,183.7,183.7,D,1
Sarah Hogan,29,76.2,82.5,No,F,F_OR_APF,Raw,108.86,47.63,129.27,285.76,SBD,2
Shannon Venezia,31,120.2,125,Yes,F,F_OR_AAPF,Raw,115.67,65.77,149.69,331.12,SBD,1
Ted Angel,56,124.28,125,No,M,M_MR_4_APF,Raw,181.44,113.4,249.48,544.31,SBD,1
Tim Maddy,,107.05,110,No,M,M_OM_APF,Multi-ply,61.23,,,,SBD,DQ
Tom Keim,33,109.81,110,No,M,M_OM_APF,Multi-ply,251.74,226.8,226.8,705.34,SBD,1
Wesley Miller,28,117.48,125,Yes,M,M_OCR_AAPF,Wraps,231.33,158.76,242.67,632.76,SBD,1
