Division,WeightClassKg,Place,Name,Team,BodyweightKg,Best3SquatKg,Best3BenchKg,Best3DeadliftKg,TotalKg,Equipment,Event,Sex
Girls,44.23,1,Symantha Flores,Three Rivers,43,104.33,47.63,120.2,272.16,Single-ply,SBD,F
Girls,44.23,2,Shawntel Hall,Seagraves,43.82,97.52,47.63,115.67,260.82,Single-ply,SBD,F
Girls,44.23,3,Courtney Ging,Thrall,42.82,90.72,52.16,95.25,238.14,Single-ply,SBD,F
Girls,44.23,4,Claudia Ayala,Ganado,42.64,77.11,40.82,102.06,219.99,Single-ply,SBD,F
Girls,44.23,5,Katelynn Clark,Celeste,43.27,83.91,31.75,95.25,210.92,Single-ply,SBD,F
Girls,44.23,6,Loralei Woodard,Cross Plains,44.18,77.11,36.29,92.99,206.38,Single-ply,SBD,F
Girls,44.23,7,Ana Rodriquez,Chico,43.54,74.84,36.29,83.91,195.04,Single-ply,SBD,F
Girls,44.23,8,Briana Gonzales,Bruni,42.91,68.04,34.02,90.72,192.78,Single-ply,SBD,F
Girls,44.23,9,Danielle Puentes,Louise,41.55,61.23,29.48,70.31,161.03,Single-ply,SBD,F
Girls,44.23,10,Harley Mingus,Cayuga,42.82,58.97,22.68,79.38,161.03,Single-ply,SBD,F
Girls,44.23,11,Courtney Stevens,Muenster,44.09,77.11,,,77.11,Single-ply,S,F
Girls,47.85,1,Vicky Minjarez,Seagraves,45.81,133.81,61.23,122.47,317.51,Single-ply,SBD,F
Girls,47.85,2,Chloe Brown,Joaquin,47.08,117.93,52.16,122.47,292.57,Single-ply,SBD,F
Girls,47.85,3,Alexis Soto,Bruni,47.81,108.86,58.97,115.67,283.5,Single-ply,SBD,F
Girls,47.85,4,Abby Narvaez,Eldorado,47.85,104.33,40.82,115.67,260.82,Single-ply,SBD,F
Girls,47.85,5,Michelle Moore,Collinsville,46.99,90.72,38.56,111.13,240.4,Single-ply,SBD,F
Girls,47.85,6,Mackenzie Robbins,Gustine,46.72,79.38,38.56,111.13,229.06,Single-ply,SBD,F
Girls,47.85,7,Sierra Childers,Meridian,47.45,99.79,38.56,83.91,222.26,Single-ply,SBD,F
Girls,47.85,8,Bayleigh Thedford,Colmesneil,46.9,86.18,27.22,72.57,185.97,Single-ply,SBD,F
Girls,47.85,NS,Kailah Badall,Jewett Leon,,,,,,Single-ply,SBD,F
Girls,51.94,1,Marissa Ortega,Mertzon Irion County,48.99,127.01,61.23,127.01,315.25,Single-ply,SBD,F
Girls,51.94,2,Jaz Lescure,Center Point,50.98,108.86,56.7,133.81,299.37,Single-ply,SBD,F
Girls,51.94,3,Elena Perez,Weimar,51.17,102.06,49.9,120.2,272.16,Single-ply,SBD,F
Girls,51.94,4,Bryannah Minjarez,Seagraves,50.44,102.06,49.9,106.59,258.55,Single-ply,SBD,F
Girls,51.94,5,Jacky Hernandez,Meridian,50.62,88.45,52.16,108.86,249.48,Single-ply,SBD,F
Girls,51.94,6,Alli York,Chico,49.53,92.99,40.82,99.79,233.6,Single-ply,SBD,F
Girls,51.94,7,Teresa Ramirez,Gustine,50.35,70.31,40.82,113.4,224.53,Single-ply,SBD,F
Girls,51.94,8,Madison Minter,Celeste,51.8,81.65,45.36,90.72,217.72,Single-ply,SBD,F
Girls,51.94,9,Kelsey Sitz,Archer City,48.81,86.18,40.82,88.45,215.46,Single-ply,SBD,F
Girls,51.94,DQ,Sara Bouldin,Normangee,51.89,,,,,Single-ply,SBD,F
Girls,56.02,1,Carle Straube,Three Rivers,54.98,138.35,56.7,129.27,324.32,Single-ply,SBD,F
Girls,56.02,2,Samantha Wick,Weimar,53.16,122.47,58.97,129.27,310.71,Single-ply,SBD,F
Girls,56.02,3,Zoe Valdez,Ganado,54.98,127.01,56.7,122.47,306.17,Single-ply,SBD,F
Girls,56.02,4,Alexis Alfaro,Ganado,54.34,106.59,47.63,113.4,267.62,Single-ply,SBD,F
Girls,56.02,5,Abby Kunkel,Ranger,56.02,102.06,43.09,122.47,267.62,Single-ply,SBD,F
Girls,56.02,6,Kendra Reining,Panhandle,55.7,104.33,47.63,113.4,265.35,Single-ply,SBD,F
Girls,56.02,7,Charlye Biggerstaff,Chico,54.88,102.06,47.63,113.4,263.08,Single-ply,SBD,F
Girls,56.02,8,Logan Self,Archer City,54.61,102.06,45.36,97.52,244.94,Single-ply,SBD,F
Girls,56.02,9,Brooke Behrendt,Thrall,54.43,90.72,52.16,95.25,238.14,Single-ply,SBD,F
Girls,56.02,DQ,Kayla Phillips,Overton,52.25,,,,,Single-ply,SBD,F
Girls,56.02,DQ,Madison Thomas,Cumby,55.79,,,,,Single-ply,SBD,F
Girls,60.1,1,Kayla Flores,Seagraves,59.15,149.69,63.5,131.54,344.73,Single-ply,SBD,F
Girls,60.1,2,Andrea Jimenez,San Saba,58.33,115.67,54.43,129.27,299.37,Single-ply,SBD,F
Girls,60.1,3,Charlene Bissell,Mertzon Irion County,58.79,104.33,56.7,131.54,292.57,Single-ply,SBD,F
Girls,60.1,4,Alyssa Carr,Maud,59.15,113.4,49.9,120.2,283.5,Single-ply,SBD,F
Girls,60.1,5,Alix Luera,Ganado,56.93,113.4,47.63,117.93,278.96,Single-ply,SBD,F
Girls,60.1,6,Anne Rouleau,Celeste,57.61,99.79,54.43,120.2,274.42,Single-ply,SBD,F
Girls,60.1,7,Matison Rhodes,Chico,59.6,99.79,56.7,115.67,272.16,Single-ply,SBD,F
Girls,60.1,8,Victoria Jordan,Saratoga West Hardin,59.78,111.13,47.63,106.59,265.35,Single-ply,SBD,F
Girls,60.1,9,Breann Hall,Chico,59.96,102.06,45.36,113.4,260.82,Single-ply,SBD,F
Girls,60.1,10,Haley Pierce,Valley Mills,59.96,99.79,43.09,108.86,251.74,Single-ply,SBD,F
Girls,67.36,1,Nicole Higgins,Ozona,65.14,181.44,65.77,142.88,390.09,Single-ply,SBD,F
Girls,67.36,2,Antonietta Castillion,La Pryor,65.05,117.93,52.16,149.69,319.78,Single-ply,SBD,F
Girls,67.36,3,Jahnia Willard,Forsan,65.32,124.74,56.7,127.01,308.44,Single-ply,SBD,F
Girls,67.36,4,Samantha Williams,Meridian,64.86,111.13,56.7,138.35,306.17,Single-ply,SBD,F
Girls,67.36,5,Corey Tate,Chico,60.69,122.47,54.43,111.13,288.03,Single-ply,SBD,F
Girls,67.36,6,Yajaira Garcia,Meridian,66.68,102.06,56.7,122.47,281.23,Single-ply,SBD,F
Girls,67.36,7,Kelli Cochrel,Saratoga West Hardin,60.51,111.13,40.82,113.4,265.35,Single-ply,SBD,F
Girls,67.36,8,Merrick Graham,Colmesneil,62.78,90.72,45.36,95.25,231.33,Single-ply,SBD,F
Girls,67.36,DQ,Gabriella Aguilar,Cumby,65.05,136.08,58.97,,,Single-ply,SBD,F
Girls,67.36,DQ,Holly Theall,Collinsville,65.23,136.08,72.57,,,Single-ply,SBD,F
Girls,75.07,1,MarKedra Darden,Weimar,72.03,142.88,65.77,147.42,356.07,Single-ply,SBD,F
Girls,75.07,2,Brianna Cummings,Maud,71.03,145.15,65.77,133.81,344.73,Single-ply,SBD,F
Girls,75.07,3,Megan Powell,Eldorado,74.21,131.54,63.5,149.69,344.73,Single-ply,SBD,F
Girls,75.07,4,Alex Miller,Kenedy,71.03,142.88,58.97,136.08,337.93,Single-ply,SBD,F
Girls,75.07,5,Ashley Vargas,Ozona,74.84,140.61,61.23,131.54,333.39,Single-ply,SBD,F
Girls,75.07,6,Amanda Guerra,Bruni,72.85,127.01,54.43,149.69,331.12,Single-ply,SBD,F
Girls,75.07,7,Rebecca Garrett,Bosqueville,75.07,117.93,72.57,124.74,315.25,Single-ply,SBD,F
Girls,75.07,8,Brittany Frillou,Axtell,72.67,111.13,61.23,122.47,294.84,Single-ply,SBD,F
Girls,75.07,9,Heidi Spann,Chico,69.31,113.4,52.16,124.74,290.3,Single-ply,SBD,F
Girls,75.07,10,Hanna Heuring,Petrolia,68.31,102.06,52.16,120.2,274.42,Single-ply,SBD,F
Girls,75.07,11,Cindy Campbell,High Island,71.3,79.38,34.02,92.99,206.38,Single-ply,SBD,F
Girls,82.33,1,Briannah Sosa,Santa Anna,78.29,142.88,52.16,174.63,369.68,Single-ply,SBD,F
Girls,82.33,2,Harlie Hagler,Shelbyville,77.29,170.1,68.04,124.74,362.87,Single-ply,SBD,F
Girls,82.33,3,Jennifer Huddleston,McCamey,78.93,147.42,61.23,147.42,356.07,Single-ply,SBD,F
Girls,82.33,4,Bailey Braddock,Cumby,75.39,145.15,56.7,138.35,340.19,Single-ply,SBD,F
Girls,82.33,5,Piper Bush,Center Point,77.2,140.61,61.23,138.35,340.19,Single-ply,SBD,F
Girls,82.33,6,Caryna Flores,Bruni,80.01,124.74,90.72,122.47,337.93,Single-ply,SBD,F
Girls,82.33,7,Brittany Carter,Bosqueville,76.75,120.2,52.16,147.42,319.78,Single-ply,SBD,F
Girls,82.33,8,Jada Redd,Honey Grove,76.48,120.2,49.9,142.88,312.98,Single-ply,SBD,F
Girls,82.33,9,Magen Allen,Colmesneil,75.39,106.59,58.97,136.08,301.64,Single-ply,SBD,F
Girls,82.33,10,Sarah Petitt,High Island,81.83,122.47,47.63,122.47,292.57,Single-ply,SBD,F
Girls,82.33,DQ,Peyton Zipoy,Thrall,81.47,,,,,Single-ply,SBD,F
Girls,90.04,1,Donnaly Soliz,Runge,85.82,163.29,68.04,147.42,378.75,Single-ply,SBD,F
Girls,90.04,2,Anna Rodriguez,Thrall,87.54,147.42,86.18,142.88,376.48,Single-ply,SBD,F
Girls,90.04,3,Lelia Bradley,Center Point,84.82,151.95,61.23,133.81,347,Single-ply,SBD,F
Girls,90.04,4,Deanna Pinkston,Louise,85.55,151.95,58.97,124.74,335.66,Single-ply,SBD,F
Girls,90.04,5,Shaina Stotts,Cayuga,87.36,136.08,56.7,136.08,328.85,Single-ply,SBD,F
Girls,90.04,7,Hannah Lipsey,Celeste,85.28,131.54,61.23,122.47,315.25,Single-ply,SBD,F
Girls,90.04,DQ,Luisa Muniz,Eldorado,85.37,,,,,Single-ply,SBD,F
Girls,90.04,DQ,Breigh-Ann True,Overton,87.91,,,,,Single-ply,SBD,F
Girls,100.02,1,Hannah Hall,Kerens,95.98,158.76,74.84,163.29,396.89,Single-ply,SBD,F
Girls,100.02,2,Karlee Lyon,Center Point,96.16,167.83,70.31,142.88,381.02,Single-ply,SBD,F
Girls,100.02,3,Bre Rushing,Blue Ridge,91.9,151.95,70.31,138.35,360.61,Single-ply,SBD,F
Girls,100.02,4,Sara Demicelli,Ganado,90.36,124.74,70.31,147.42,342.46,Single-ply,SBD,F
Girls,100.02,5,Amanda Long,Hermleigh,94.26,140.61,58.97,133.81,333.39,Single-ply,SBD,F
Girls,100.02,6,Kim Knighten,Colmesneil,91.08,124.74,58.97,142.88,326.59,Single-ply,SBD,F
Girls,100.02,7,Kim Keeter,Olney,91.63,122.47,68.04,136.08,326.59,Single-ply,SBD,F
Girls,100.02,8,Tessa Privet,Pettus,97.25,115.67,65.77,145.15,326.59,Single-ply,SBD,F
Girls,100.02,9,Hailey Anderson,Bosqueville,98.88,108.86,79.38,136.08,324.32,Single-ply,SBD,F
Girls,100.02,10,Courtney Cordell,Valley Mills,96.8,136.08,49.9,131.54,317.51,Single-ply,SBD,F
Girls,100.02,11,Evelyn Morales,Cross Plains,94.44,113.4,49.9,124.74,288.03,Single-ply,SBD,F
Girls,100.02+,1,Tricia Williams,Lometa,133.36,204.12,136.08,181.44,521.63,Single-ply,SBD,F
Girls,100.02+,2,Holly Needham,Ranger,121.38,190.51,86.18,176.9,453.59,Single-ply,SBD,F
Girls,100.02+,3,Erin Sanders,San Saba,114.49,165.56,83.91,156.49,405.97,Single-ply,SBD,F
Girls,100.02+,4,Paige Albert,Blue Ridge,118.93,165.56,86.18,142.88,394.63,Single-ply,SBD,F
Girls,100.02+,5,Abbey Williams,Collinsville,115.85,156.49,83.91,151.95,392.36,Single-ply,SBD,F
Girls,100.02+,6,Erin Ortiz,Runge,103.06,165.56,65.77,158.76,390.09,Single-ply,SBD,F
Girls,100.02+,7,Dastine White,Tahoka,104.42,147.42,79.38,158.76,385.55,Single-ply,SBD,F
Girls,100.02+,8,Jessica Sanford,Shelbyville,101.79,147.42,63.5,129.27,340.19,Single-ply,SBD,F
Girls,100.02+,DQ,Sabrina Chambliss,Celeste,100.06,99.79,63.5,129.27,,Single-ply,SBD,F
Girls,100.02+,DQ,Larissa Delgado,La Pryor,152.04,142.88,,,,Single-ply,SBD,F
Girls,100.02+,DQ,Asia Snow,High Island,125.28,124.74,63.5,,,Single-ply,SBD,F
