Place,Name,BirthYear,Country,BodyweightKg,Bench1Kg,Bench2Kg,Bench3Kg,Best3BenchKg,TotalKg,WeightClassKg,Division,Event,Sex,Equipment
1,Naoya Ikeda,1970,Japan,51.3,165,-170,-170,165,165,52,Open,B,M,Single-ply
2,Krzysztof Wrona,1975,Poland,49.4,147.5,152.5,-165,152.5,152.5,52,Open,B,M,Single-ply
3,Hung Pham,1974,USA,51.6,135,140,145,145,145,52,Open,B,M,Single-ply
4,Christian Klein,1970,Germany,51.8,140,142.5,-147.5,142.5,142.5,52,Open,B,M,Single-ply
1,Hiroyuki Isagawa,1953,Japan,56,175,-182.5,182.5,182.5,182.5,56,Open,B,M,Single-ply
2,Tagy Parnian,1968,Netherlands,55.1,-177.5,177.5,-182.5,177.5,177.5,56,Open,B,M,Single-ply
3,Krzysztof Owsiany,1964,Poland,55.1,155,160,-165,160,160,56,Open,B,M,Single-ply
DQ,Peter Wong,1978,USA,56,-150,-150,-160,,,56,Open,B,M,Single-ply
1,Ayrat Zakiev,1981,Russia,59.8,190,-200,202.5,202.5,202.5,60,Open,B,M,Single-ply
2,Štefan Koľšovský,1961,Slovakia,57.1,147.5,-155,157.5,157.5,157.5,60,Open,B,M,Single-ply
3,Steve Petrencak,1968,USA,59.4,150,155,-160,155,155,60,Open,B,M,Single-ply
DQ,Kenichiro Matsumoto,1975,Japan,59.9,-195,-195,-205,,,60,Open,B,M,Single-ply
1,Alexey Sivokon,1973,Kazakhstan,66.2,200,205,210,210,210,67.5,Open,B,M,Single-ply
2,Niklas Jönsson,1979,Sweden,67.2,-195,195,-207.5,195,195,67.5,Open,B,M,Single-ply
3,Pawel Pracownik,1973,Poland,67.4,-195,-195,195,195,195,67.5,Open,B,M,Single-ply
4,Trey Collins,1974,USA,65.6,190,-192.5,-192.5,190,190,67.5,Open,B,M,Single-ply
5,Tuomas Nikkilä,1978,Finland,66.6,182.5,-187.5,-192.5,182.5,182.5,67.5,Open,B,M,Single-ply
6,Antoine Breton,1968,France,65.7,170,177.5,-182.5,177.5,177.5,67.5,Open,B,M,Single-ply
7,Jean-Sébastien Rhéaume,1974,Canada,67.4,150,157.5,162.5,162.5,162.5,67.5,Open,B,M,Single-ply
8,Konstantin Bahtcevanov,1977,Bulgaria,65.8,150,-160,160,160,160,67.5,Open,B,M,Single-ply
1,Daiki Kodama,1979,Japan,74.3,-247.5,-247.5,250,250,250,75,Open,B,M,Single-ply
2,Sergey Knyazev,1976,Russia,74.5,230,237.5,240,240,240,75,Open,B,M,Single-ply
3,Roman Zuzuk,1971,Ukraine,72.8,215,-225,-225,215,215,75,Open,B,M,Single-ply
4,Janne Pöykiö,1978,Finland,74.6,-197.5,202.5,-217.5,202.5,202.5,75,Open,B,M,Single-ply
5,Vladimír Nebola,1970,Czechia,74.7,195,202.5,-207.5,202.5,202.5,75,Open,B,M,Single-ply
6,Alphonse Cucuzella,1966,France,71.2,195,-202.5,-202.5,195,195,75,Open,B,M,Single-ply
7,Antti Liimatainen,1976,Finland,74.8,190,-200,-205,190,190,75,Open,B,M,Single-ply
8,Tom Kean,1972,Canada,73.8,172.5,180,185,185,185,75,Open,B,M,Single-ply
9,George Mahlakwane,1973,South Africa,74.4,155,162.5,-170,162.5,162.5,75,Open,B,M,Single-ply
DQ,Michael Hara,1960,USA,74.1,-232.5,-232.5,-232.5,,,75,Open,B,M,Single-ply
DQ,Keisuke Takahashi,1973,Japan,74.7,-245,-250,-250,,,75,Open,B,M,Single-ply
1,Jan Wegiera,1965,Poland,82.4,245,253,255,255,255,82.5,Open,B,M,Single-ply
2,Yuji Watanabe,1980,Japan,81.8,-245,-245,252.5,252.5,252.5,82.5,Open,B,M,Single-ply
3,Volodymyr Narolskyy,1977,Ukraine,81.8,230,237.5,-242.5,237.5,237.5,82.5,Open,B,M,Single-ply
4,István Juhász,1976,Hungary,80.4,-235,235,-240,235,235,82.5,Open,B,M,Single-ply
5,Sergey Nochnoy,1967,Russia,82.5,225,-235,-240,225,225,82.5,Open,B,M,Single-ply
6,Vladimír Urban,1973,Slovakia,81.7,222.5,-230,-235,222.5,222.5,82.5,Open,B,M,Single-ply
7,Mykola Oliynyk,1981,Ukraine,79.4,180,200,210,210,210,82.5,Open,B,M,Single-ply
8,Arunas Ranonis,1975,Lithuania,81.4,180,192.5,200,200,200,82.5,Open,B,M,Single-ply
9,Allan Riis,1971,Denmark,81.2,-180,180,187.5,187.5,187.5,82.5,Open,B,M,Single-ply
10,Erik Rasmussen,1962,Denmark,81.1,-180,-180,180,180,180,82.5,Open,B,M,Single-ply
DQ,Zhak Harutyunyan,1979,Armenia,79.7,-130,-130,-130,,,82.5,Open,B,M,Single-ply
DQ,Lance Kircher,1974,USA,80.9,-232.5,-232.5,-232.5,,,82.5,Open,B,M,Single-ply
1,Alexey Vorobyev,1969,Russia,86.3,250,255,262.5,262.5,262.5,90,Open,B,M,Single-ply
2,Joseph McAuliffe,1965,USA,88.2,247.5,255,260,260,260,90,Open,B,M,Single-ply
3,Jan Bast,1977,Germany,87.3,250,255,257.5,257.5,257.5,90,Open,B,M,Single-ply
4,Genädijs Zubriks,1965,Latvia,87.7,235,247.5,255,255,255,90,Open,B,M,Single-ply
5,Fredrick Jader,1979,Sweden,89.2,-247.5,247.5,-257.5,247.5,247.5,90,Open,B,M,Single-ply
6,Yoichi Kishimoto,1977,Japan,89.9,245,-255,-265,245,245,90,Open,B,M,Single-ply
7,Sergiy Pevnev,1978,Ukraine,89.1,232.5,240,-247.5,240,240,90,Open,B,M,Single-ply
8,Olav Farstad Svein,1965,Norway,89.7,-200,200,-210,200,200,90,Open,B,M,Single-ply
9,Frank Brunhoej,1970,Denmark,88.5,-187.5,190,-197.5,190,190,90,Open,B,M,Single-ply
10,Jan Thoegersen,1966,Denmark,89.7,-190,190,-197.5,190,190,90,Open,B,M,Single-ply
11,Dave Pigozzo,1968,Canada,89,-147.5,147.5,155,155,155,90,Open,B,M,Single-ply
12,Sharma Sanjeev Kr,1969,India,88.1,110,130,,130,130,90,Open,B,M,Single-ply
1,Jarmo Sohlman,1969,Finland,99.8,265,-270,-282.5,265,265,100,Open,B,M,Single-ply
2,Ralph Young,1963,USA,99.6,-260,260,-270,260,260,100,Open,B,M,Single-ply
3,Rashed Al Omari,1970,UAE,99.8,-250,250,-260,250,250,100,Open,B,M,Single-ply
4,Vladimir Flimel,1976,Slovakia,99.4,240,247.5,-260,247.5,247.5,100,Open,B,M,Single-ply
5,Stanislaw Gasiennia-Makowski,1973,Poland,98.7,-245,245,-260,245,245,100,Open,B,M,Single-ply
6,Kohei Chida,1968,Japan,95.8,225,-240,-240,225,225,100,Open,B,M,Single-ply
7,Jeff Butt,1970,Canada,95.2,210,217.5,-222.5,217.5,217.5,100,Open,B,M,Single-ply
8,Totio Ivanov,1980,Bulgaria,97.5,200,-220,-220,200,200,100,Open,B,M,Single-ply
9,Marian Georgiev,1979,Bulgaria,99.5,-190,190,-200,190,190,100,Open,B,M,Single-ply
10,John Giffen Sr,1940,Canada,98.4,160,172.5,-177.5,172.5,172.5,100,Open,B,M,Single-ply
11,Sushil Tagra,1966,India,95.2,160,,,160,160,100,Open,B,M,Single-ply
DQ,Vladimir Volkov,1959,Russia,97.7,-260,-260,-265,,,100,Open,B,M,Single-ply
DQ,László Kupcsik,1967,Hungary,98.6,-280,280,285.5,285.5,,100,Open,B,M,Single-ply
DQ,Dmitry Panfilov,1974,Kazakhstan,99.8,235,-247.5,252.5,252.5,,100,Open,B,M,Single-ply
1,Kevin Mayer,1966,USA,107.9,272.5,280,-295.5,280,280,110,Open,B,M,Single-ply
2,Shinichi Kosone,1972,Japan,109.2,270,-280,-282.5,270,270,110,Open,B,M,Single-ply
3,Oleg Kushnarev,1973,Russia,107.9,267.5,-272.5,-275,267.5,267.5,110,Open,B,M,Single-ply
4,Sergey Makrushyn,1975,Ukraine,108.5,265,-275,-275,265,265,110,Open,B,M,Single-ply
5,Shigeki Minami,1965,Japan,109,-260,-265,265,265,265,110,Open,B,M,Single-ply
6,Tamás Pfeifenróth,1973,Hungary,107.1,-260,260,-272.5,260,260,110,Open,B,M,Single-ply
7,Marcus Hirvonen,1976,Sweden,109.4,260,-270,-280,260,260,110,Open,B,M,Single-ply
7,John Giffen Jr,1972,Canada,109.4,-255,260,-272.5,260,260,110,Open,B,M,Single-ply
9,Per Nilsson,1974,Sweden,108.1,255,-265,-270,255,255,110,Open,B,M,Single-ply
10,Achim Kircher,1968,Germany,109.9,-245,250,-270,250,250,110,Open,B,M,Single-ply
11,Vincent Cosmo,1971,South Africa,108.9,225,240,-250,240,240,110,Open,B,M,Single-ply
12,Jamie Emberley,1980,Canada,107.2,220,-230,-237.5,220,220,110,Open,B,M,Single-ply
DQ,István Hegedüs,1967,Hungary,107.9,-267.5,-267.5,-275,,,110,Open,B,M,Single-ply
DQ,Kaido Leesman,1969,Estonia,109.5,-215,-220,-220,,,110,Open,B,M,Single-ply
1,László Mészáros,1968,Hungary,118.6,320,-325,-330,320,320,125,Open,B,M,Single-ply
2,Scott Lade,1968,USA,124.4,290,297.5,302.5,302.5,302.5,125,Open,B,M,Single-ply
3,Ove Lehto,1972,Finland,124.4,-280,280,300,300,300,125,Open,B,M,Single-ply
4,Kjell Furesund,1966,Norway,122.2,255,262.5,-280,262.5,262.5,125,Open,B,M,Single-ply
5,Zbyněk Krejča,1974,Czechia,112.2,252.5,257.5,-262.5,257.5,257.5,125,Open,B,M,Single-ply
6,Radik Gayanov,1973,Kazakhstan,110.3,232.5,240,247.5,247.5,247.5,125,Open,B,M,Single-ply
7,Markus Hoen,1966,Germany,115.8,230,240,-250,240,240,125,Open,B,M,Single-ply
8,Sune Bang,1977,Denmark,124.6,235,-242.5,-245,235,235,125,Open,B,M,Single-ply
9,Daniel Royer,1957,Canada,110.6,170,180,-187.5,180,180,125,Open,B,M,Single-ply
DQ,Sean Brown,1964,Canada,122.1,-255,-255,-255,,,125,Open,B,M,Single-ply
1,Kenneth Sandvik,1975,Finland,149.9,310,315,322.5,322.5,322.5,125+,Open,B,M,Single-ply
2,Dariusz Mirowski,1977,Poland,125.4,-315,320,-325,320,320,125+,Open,B,M,Single-ply
3,Daisuke Midote,1972,Japan,139.7,310,-317.5,-322.5,310,310,125+,Open,B,M,Single-ply
4,Fredrik Svensson,1979,Sweden,148.8,-297.5,297.5,-312.5,297.5,297.5,125+,Open,B,M,Single-ply
5,Dan Suberlak,1968,Canada,181.7,-270,270,287.5,287.5,287.5,125+,Open,B,M,Single-ply
6,Lance Karabel,1972,USA,155.2,285,-297.5,-300,285,285,125+,Open,B,M,Single-ply
7,Shawn O'Halloran,1965,Canada,133.9,282.5,-290,-297.5,282.5,282.5,125+,Open,B,M,Single-ply
8,Trond Fjøren,1966,Norway,138.4,255,-260,-260,255,255,125+,Open,B,M,Single-ply
9,Armand Lagrange,1977,South Africa,141.8,220,-222.5,-247.5,220,220,125+,Open,B,M,Single-ply
DQ,Andreas Ehlinger,1978,Germany,134.2,-270,-270,-285,,,125+,Open,B,M,Single-ply
DQ,Vladimir Maksimov,1966,Russia,135.2,-310,-310,-310,,,125+,Open,B,M,Single-ply
DQ,Niels Stærkjær,1966,Denmark,171,-322.5,-322.5,-322.5,,,125+,Open,B,M,Single-ply
DQ,Johnny Wahlqvist,1973,Sweden,171.9,-305,-305,-305,,,125+,Open,B,M,Single-ply
1,Justyna Kozdryk,1980,Poland,42,90,92.5,98,98,97.5,44,Open,B,F,Single-ply
2,Olga Golubeva,1970,Russia,43.8,-90,90,-95,90,90,44,Open,B,F,Single-ply
3,Eva Svjanteková,1973,Slovakia,43.9,90,-95,-95,90,90,44,Open,B,F,Single-ply
4,Akemi Maeda,1964,Japan,43.6,77.5,82.5,-85,82.5,82.5,44,Open,B,F,Single-ply
5,Margit Wanko,1973,Austria,42.4,65,70,-75,70,70,44,Open,B,F,Single-ply
1,Yukako Fukushima,1970,Japan,47.3,-115,115,120,120,120,48,Open,B,F,Single-ply
2,Marcela Balogová,1974,Czechia,47.5,90,95,-97.5,95,95,48,Open,B,F,Single-ply
3,Mervi Sirkiä,1972,Finland,47.9,90,-92.5,-97.5,90,90,48,Open,B,F,Single-ply
4,Hanna Svahn,1963,Denmark,48,87.5,-92.5,-92.5,87.5,87.5,48,Open,B,F,Single-ply
5,Michiko Kamiya,1969,Japan,47,82.5,85,-90,85,85,48,Open,B,F,Single-ply
6,Junko Kitamura,1963,South Africa,47.6,80,-85,-85,80,80,48,Open,B,F,Single-ply
7,Ann Dalling Lee,1962,Canada,47.1,77.5,-85,-87.5,77.5,77.5,48,Open,B,F,Single-ply
8,Monika Engelwirth,1972,Austria,47.9,67.5,72.5,77.5,77.5,77.5,48,Open,B,F,Single-ply
9,Maura Shuttleworth,1976,USA,46.9,67.5,72.5,-80,72.5,72.5,48,Open,B,F,Single-ply
1,Irina Krylova,1978,Russia,51.9,112.5,120,125,125,125,52,Open,B,F,Single-ply
2,Anna Olsson-Lynge,1974,Sweden,51.6,115,120,-125,120,120,52,Open,B,F,Single-ply
3,Kaori Nagaya-Shirakawa,1963,Japan,51.2,105,-112.5,-112.5,105,105,52,Open,B,F,Single-ply
4,Hisako Yoshida,1951,Japan,51.4,80,-87.5,-87.5,80,80,52,Open,B,F,Single-ply
DQ,Jenni Hollier,1980,USA,50.6,-95,-95,-95,,,52,Open,B,F,Single-ply
1,Tamara Althaus,1976,Germany,53.4,130,138.5,-140,138.5,138.5,56,Open,B,F,Single-ply
2,Jill Darling,1977,USA,55.6,117.5,-125,-140,117.5,117.5,56,Open,B,F,Single-ply
3,Hanna Rantala,1982,Finland,52.6,105,110,-117.5,110,110,56,Open,B,F,Single-ply
4,M. Christine Pracella,1965,France,54,107.5,-110,-110,107.5,107.5,56,Open,B,F,Single-ply
5,Marion Braun,1972,Austria,53.7,95,100,-105,100,100,56,Open,B,F,Single-ply
6,Kriszina Nagypal,1985,Hungary,55.1,80,87.5,-100,87.5,87.5,56,Open,B,F,Single-ply
DQ,Wing-Yuk Ip,1961,Hong Kong,54.8,-67.5,-70,-70,,,56,Open,B,F,Single-ply
1,Jennifer Robertson,1980,USA,59.2,-135,135,-137.5,135,135,60,Open,B,F,Single-ply
2,Jennifer Thompson #1,1973,USA,59.5,-132.5,132.5,-140,132.5,132.5,60,Open,B,F,Single-ply
3,Natalia Igosheva,1981,Russia,59.8,115,120,-122.5,120,120,60,Open,B,F,Single-ply
4,Rita Nagy,1974,Hungary,58.9,110,115,-120,115,115,60,Open,B,F,Single-ply
5,Yukie Kato,1974,Japan,58.7,87.5,-92.5,92.5,92.5,92.5,60,Open,B,F,Single-ply
6,Colette Pendry,1968,UK,58.8,85,92.5,-100,92.5,92.5,60,Open,B,F,Single-ply
7,Sandra Schmidt,1980,Germany,59.3,92.5,-97.5,-97.5,92.5,92.5,60,Open,B,F,Single-ply
DQ,Ute Villwock,1967,Germany,58.7,-97.5,-97.5,-100,,,60,Open,B,F,Single-ply
1,Priscilla Ribic,1972,USA,67.1,130,140,145,145,145,67.5,Open,B,F,Single-ply
2,Svetlana Korobeynikova,1979,Russia,66.4,125,130,-132.5,130,130,67.5,Open,B,F,Single-ply
3,Maria Volkova,1972,Russia,65.8,125,-130,-132.5,125,125,67.5,Open,B,F,Single-ply
4,Rie Teruya,1975,Japan,66.4,120,-130,-132.5,120,120,67.5,Open,B,F,Single-ply
5,Andrea Jaroli,1985,Hungary,64.9,-100,-105,105,105,105,67.5,Open,B,F,Single-ply
1,Christina Newman,1977,USA,72,130,142.5,145,145,145,75,Open,B,F,Single-ply
2,Monika Biernacka,1975,Poland,71.8,-135,-135,135,135,135,75,Open,B,F,Single-ply
3,Mariann Óvári,1972,Hungary,68.6,130,-137.5,-142.5,130,130,75,Open,B,F,Single-ply
4,Kimiko Oba,1954,Japan,70.7,-130,-130,130,130,130,75,Open,B,F,Single-ply
5,Devan Doan,1987,USA,73.5,-125,-125,125,125,125,75,Open,B,F,Single-ply
6,Aoi Miyata,1976,Japan,73.4,-115,115,-125,115,115,75,Open,B,F,Single-ply
7,Gily Martinez,1978,Venezuela,73.2,87.5,95,-102.5,95,95,75,Open,B,F,Single-ply
DQ,Camilla Broström,1978,Sweden,73,-142.5,-142.5,-145,,,75,Open,B,F,Single-ply
DQ,Lola Coscojuela,1966,Spain,73.1,-150,-150,-150,,,75,Open,B,F,Single-ply
DQ,Tone Glomstein,1964,Norway,73.1,-95,-95,-97.5,,,75,Open,B,F,Single-ply
1,Tatyana Kudryavtseva,1982,Kazakhstan,77.5,150,160,172.5,172.5,172.5,82.5,Open,B,F,Single-ply
2,Nikoletta Nánási,1982,Hungary,81.5,120,127.5,-135,127.5,127.5,82.5,Open,B,F,Single-ply
3,Monique Hartle,1969,Canada,81,-92.5,92.5,102.5,102.5,102.5,82.5,Open,B,F,Single-ply
4,Karyne Turcotte,1986,Canada,76.8,60,67.5,-72.5,67.5,67.5,82.5,Open,B,F,Single-ply
DQ,Timea Závodszky,1971,Hungary,82.4,165,170,-175,170,,82.5,Open,B,F,Single-ply
1,Ielja Strik,1973,Netherlands,82.8,150,-160,-160,150,150,90,Open,B,F,Single-ply
2,Rosemarie Beer,1945,Austria,82.6,120,-125,125,125,125,90,Open,B,F,Single-ply
3,Kim Newman,1957,USA,87.8,70,80,-90,80,80,90,Open,B,F,Single-ply
DQ,Anna Śliwińska,1982,Poland,89.7,-155,-155,-155,,,90,Open,B,F,Single-ply
1,Irina Naskripnyak,1969,Russia,99.5,162.5,170,175,175,175,90+,Open,B,F,Single-ply
2,Deborah Ferrell,1964,USA,121.9,-170,172.5,-177.5,172.5,172.5,90+,Open,B,F,Single-ply
3,Ganna Ganenko,1975,Ukraine,107.4,165,-172.5,-177.5,165,165,90+,Open,B,F,Single-ply
4,Svetlana Paltseva,1969,Russia,102.4,160,-167.5,-167.5,160,160,90+,Open,B,F,Single-ply
DQ,Timea Magyar,1986,Hungary,118,-90,-90,-90,,,90+,Open,B,F,Single-ply
