Division,WeightClassKg,Place,Name,Team,BodyweightKg,Best3SquatKg,Best3BenchKg,Best3DeadliftKg,TotalKg,Equipment,Event,Sex
Boys,51.71,1,Anthony Phimmasone,Fort Worth Boswell,50.26,92.99,52.16,111.13,256.28,Single-ply,SBD,M
Boys,51.71,2,Noah Duvall,Springtown,48.44,79.38,52.16,104.33,235.87,Single-ply,SBD,M
Boys,55.79,1,Marcus King,Fort Worth Boswell,54.61,95.25,45.36,136.08,276.69,Single-ply,SBD,M
Boys,55.79,2,Julian Castano,Fort Worth Boswell,54.98,90.72,56.7,113.4,260.82,Single-ply,SBD,M
Boys,59.87,1,Brayden Brown,Granbury,56.43,129.27,79.38,133.81,342.46,Single-ply,SBD,M
Boys,59.87,2,Alonzo Owens,Fort Worth Boswell,59.15,131.54,68.04,120.2,319.78,Single-ply,SBD,M
Boys,59.87,3,Collin Biggers,Fort Worth Boswell,59.78,131.54,74.84,113.4,319.78,Single-ply,SBD,M
Boys,59.87,4,Holden Fry,Springtown,56.93,106.59,61.23,127.01,294.84,Single-ply,SBD,M
Boys,59.87,5,Curtis Wences,Granbury,56.79,102.06,65.77,104.33,272.16,Single-ply,SBD,M
Boys,67.13,1,Garrett Wright,Fort Worth Boswell,64.59,172.37,97.52,161.03,430.91,Single-ply,SBD,M
Boys,67.13,2,Cameron Beagle,Fort Worth Boswell,66.77,124.74,88.45,158.76,371.95,Single-ply,SBD,M
Boys,67.13,3,Chandler Reeves,Fort Worth Boswell,62.96,120.2,79.38,124.74,324.32,Single-ply,SBD,M
Boys,67.13,4,Dakota Brooks,Springtown,66.77,122.47,74.84,127.01,324.32,Single-ply,SBD,M
Boys,74.84,1,Dominick Segoviano,Fort Worth Boswell,74.12,183.7,111.13,183.7,478.54,Single-ply,SBD,M
Boys,74.84,2,Jabril Cummings,Springtown,71.94,136.08,90.72,183.7,410.5,Single-ply,SBD,M
Boys,74.84,3,Jacob Nelson-Peters,Springtown,71.4,142.88,83.91,174.63,401.43,Single-ply,SBD,M
Boys,74.84,4,Logan Terrell,Springtown,74.53,156.49,74.84,167.83,399.16,Single-ply,SBD,M
Boys,74.84,5,Sawyer Drewry,Springtown,70.13,133.81,81.65,156.49,371.95,Single-ply,SBD,M
Boys,74.84,6,Caleb Genberg,Fort Worth Boswell,74.12,142.88,86.18,138.35,367.41,Single-ply,SBD,M
Boys,74.84,7,Colton Tucker,Springtown,69.13,120.2,79.38,151.95,351.53,Single-ply,SBD,M
Boys,74.84,8,Brayden Cates,Granbury,71.76,129.27,79.38,129.27,337.93,Single-ply,SBD,M
Boys,74.84,9,Trent Melton,Granbury,72.03,206.38,,,206.38,Single-ply,S,M
Boys,82.1,1,Justin Bratten,Fort Worth Boswell,80.38,197.31,111.13,201.85,510.29,Single-ply,SBD,M
Boys,82.1,2,Damon Williams,Fort Worth Boswell,79.83,188.24,117.93,190.51,496.68,Single-ply,SBD,M
Boys,82.1,3,Montana Harthcock,Springtown,79.11,188.24,92.99,208.65,489.88,Single-ply,SBD,M
Boys,82.1,4,Baret Tedder,Springtown,78.02,181.44,97.52,179.17,458.13,Single-ply,SBD,M
Boys,82.1,5,Chandler Chenault,Springtown,79.79,176.9,88.45,183.7,449.06,Single-ply,SBD,M
Boys,82.1,6,Andrew Fuller,Fort Worth Boswell,78.47,174.63,113.4,158.76,446.79,Single-ply,SBD,M
Boys,82.1,7,Nolan Tucker,Springtown,76.88,149.69,92.99,192.78,435.45,Single-ply,SBD,M
Boys,82.1,8,Dante Bushnell,Fort Worth Boswell,80.56,165.56,83.91,151.95,401.43,Single-ply,SBD,M
Boys,82.1,9,Tyler Bragg,Springtown,78.52,129.27,102.06,158.76,390.09,Single-ply,SBD,M
Boys,82.1,10,Wesley Williams #2,Springtown,79.38,133.81,90.72,163.29,387.82,Single-ply,SBD,M
Boys,82.1,11,Michael Trull,Granbury,80.1,129.27,92.99,158.76,381.02,Single-ply,SBD,M
Boys,82.1,12,Ashton Watson,Springtown,76.97,122.47,79.38,142.88,344.73,Single-ply,SBD,M
Boys,89.81,1,Wriley Russell,Springtown,86.77,197.31,108.86,208.65,514.83,Single-ply,SBD,M
Boys,89.81,2,Drake Sanders,Granbury,89.63,165.56,124.74,201.85,492.15,Single-ply,SBD,M
Boys,89.81,3,Guillermo Pando,Springtown,86.91,190.51,111.13,181.44,483.08,Single-ply,SBD,M
Boys,89.81,4,Luis Hernandez,Granbury,83.28,192.78,102.06,185.97,480.81,Single-ply,SBD,M
Boys,89.81,5,Will Humphrey,Fort Worth Boswell,89.72,161.03,99.79,161.03,421.84,Single-ply,SBD,M
Boys,99.79,1,Jason Umanzor,Granbury,98.07,210.92,111.13,190.51,512.56,Single-ply,SBD,M
Boys,99.79,2,Kyrese McFarland,Fort Worth Boswell,97.07,174.63,104.33,165.56,444.52,Single-ply,SBD,M
Boys,99.79,3,Melieke Brown,Fort Worth Boswell,99.52,181.44,86.18,174.63,442.25,Single-ply,SBD,M
Boys,109.77,1,Raul Sandoval,Granbury,109.59,254.01,147.42,215.46,616.89,Single-ply,SBD,M
Boys,109.77,2,Sukhman Singh,Granbury,103.33,192.78,102.06,174.63,469.47,Single-ply,SBD,M
Boys,109.77,3,Alexander Frithiof,Springtown,105.1,129.27,88.45,163.29,381.02,Single-ply,SBD,M
Boys,124.74,1,Justin Watson,Fort Worth Boswell,120.11,254.01,142.88,222.26,619.15,Single-ply,SBD,M
Boys,124.74,2,Sawyer Caldwell,Granbury,120.84,174.63,147.42,183.7,505.76,Single-ply,SBD,M
Boys,124.74,3,Max Michaels,Fort Worth Boswell,117.03,192.78,122.47,183.7,498.95,Single-ply,SBD,M
Boys,124.74,4,Troy Davis,Granbury,110.13,151.95,83.91,158.76,394.63,Single-ply,SBD,M
Boys,124.74,5,Enrique Ledee,Fort Worth Boswell,124.01,154.22,70.31,154.22,378.75,Single-ply,SBD,M
Boys,124.74+,1,Jake Allsbrooks,Fort Worth Boswell,135.35,290.3,145.15,217.72,653.17,Single-ply,SBD,M
Boys,124.74+,2,Jesse Springfield,Springtown,126.55,240.4,142.88,235.87,619.15,Single-ply,SBD,M
Boys,124.74+,3,Michael Ward,Springtown,130.41,154.22,102.06,190.51,446.79,Single-ply,SBD,M
